/*!
\page BitIoLdd8 BitIoLdd8 (BitIO_LDD)
**         The HAL BitIO component provides a low level API for unified
**         access to general purpose digital input/output pins across
**         various device designs.
**
**         RTOS drivers using HAL BitIO API are simpler and more
**         portable to various microprocessors.

- \subpage BitIoLdd8_settings
- \subpage BitIoLdd8_regs_overview  
- \subpage BitIoLdd8_regs_details
- \ref BitIoLdd8_module "Component documentation" 

\page BitIoLdd8_regs_overview Registers Initialization Overview
This page initialization values for the registers of the peripheral(s) configured
by the component. 
<table>
<tr><td colspan="4" class="ttitle1">BitIoLdd8 Initialization</td></tr>
<tr><td class="ttitle2">Address</td><td class="ttitle2">Register</td><td class="ttitle2">Register Value</td><td class="ttitle2">Register Description</td></tr>
<tr><td>0x400FF014</td><td>GPIOA_PDDR</td><td>
    0x1C000040
 </td><td>GPIOA_PDDR register, peripheral BitIoLdd8.</td></tr>
<tr><td>0x400FF018</td><td>GPIOA_PIDR</td><td>
    0xE0020000
 </td><td>GPIOA_PIDR register, peripheral BitIoLdd8.</td></tr>
<tr><td>0x400FF000</td><td>GPIOA_PDOR</td><td>
    0x00000000
 </td><td>GPIOA_PDOR register, peripheral BitIoLdd8.</td></tr>
</table>
<br/>
\page BitIoLdd8_regs_details Register Initialization Details
This page contains detailed description of initialization values for the 
registers of the peripheral(s) configured by the component. 

<div class="reghdr1">GPIOA_PDDR</div>
<div class="regdiag">
<table class="regtbl">
<tr class="trd1r">
<td class="trd1c">Bit</td><td>31</td><td>30</td><td>29</td><td>28</td><td>27</td><td>26</td><td>25</td><td>24</td><td>23</td>
<td>22</td><td>21</td><td>20</td><td>19</td><td>18</td><td>17</td><td>16</td>
</tr>
<tr>
<td class="trd1c">R</td><td colspan="16" rowspan="2">PDD</td>
</tr>
<tr>
<td class="trd1c">W</td>
</tr>
<tr class="trd1r">
<td class="trd1c">Reset</td><td>0</td><td>0</td><td>0</td><td>0</td><td>0</td><td>0</td><td>0</td><td>0</td><td>0</td><td>0</td>
<td>0</td><td>0</td><td>0</td><td>0</td><td>0</td><td>0</td>
</tr>
</table>
<table class="regtbl">
<tr class="trd1r">
<td class="trd1c">Bit</td><td>15</td><td>14</td><td>13</td><td>12</td><td>11</td><td>10</td><td>9</td><td>8</td><td>7</td>
<td>6</td><td>5</td><td>4</td><td>3</td><td>2</td><td>1</td><td>0</td>
</tr>
<tr>
<td class="trd1c">R</td><td colspan="32" rowspan="2">PDD</td>
</tr>
<tr>
<td class="trd1c">W</td>
</tr>
<tr class="trd1r">
<td class="trd1c">Reset</td><td>0</td><td>0</td><td>0</td><td>0</td><td>0</td><td>0</td><td>0</td><td>0</td><td>0</td><td>0</td>
<td>0</td><td>0</td><td>0</td><td>0</td><td>0</td><td>0</td>
</tr>
</table>
        
</div>
<table class="regtbl2"><tr><td class="trowtit" colspan="2">Address</td><td colspan="2">0x400FF014</td></tr>
<tr class="trowtit"><td  class="trowtit" colspan="2">Initial value</td><td colspan="2">0x1C000040</td></tr>
<tr class="trowtit"><td  class="trowtit" colspan="2">After-reset value</td><td colspan="2">0x00000000</td></tr>
<tr><td class="ttitle2">Bit</td><td class="ttitle2">Field</td><td class="ttitle2">Value</td><td class="ttitle2">Description</td></tr>
<tr><td>0 - 31</td><td>PDD</td><td>0x00</td><td>Port Data Direction</td>
</tr></table>
<div class="reghdr1">GPIOA_PIDR</div>
<div class="regdiag">
<table class="regtbl">
<tr class="trd1r">
<td class="trd1c">Bit</td><td>31</td><td>30</td><td>29</td><td>28</td><td>27</td><td>26</td><td>25</td><td>24</td><td>23</td>
<td>22</td><td>21</td><td>20</td><td>19</td><td>18</td><td>17</td><td>16</td>
</tr>
<tr>
<td class="trd1c">R</td><td colspan="16" rowspan="2">PID</td>
</tr>
<tr>
<td class="trd1c">W</td>
</tr>
<tr class="trd1r">
<td class="trd1c">Reset</td><td>0</td><td>0</td><td>0</td><td>0</td><td>0</td><td>0</td><td>0</td><td>0</td><td>0</td><td>0</td>
<td>0</td><td>0</td><td>0</td><td>0</td><td>0</td><td>0</td>
</tr>
</table>
<table class="regtbl">
<tr class="trd1r">
<td class="trd1c">Bit</td><td>15</td><td>14</td><td>13</td><td>12</td><td>11</td><td>10</td><td>9</td><td>8</td><td>7</td>
<td>6</td><td>5</td><td>4</td><td>3</td><td>2</td><td>1</td><td>0</td>
</tr>
<tr>
<td class="trd1c">R</td><td colspan="32" rowspan="2">PID</td>
</tr>
<tr>
<td class="trd1c">W</td>
</tr>
<tr class="trd1r">
<td class="trd1c">Reset</td><td>0</td><td>0</td><td>0</td><td>0</td><td>0</td><td>0</td><td>0</td><td>0</td><td>0</td><td>0</td>
<td>0</td><td>0</td><td>0</td><td>0</td><td>0</td><td>0</td>
</tr>
</table>
        
</div>
<table class="regtbl2"><tr><td class="trowtit" colspan="2">Address</td><td colspan="2">0x400FF018</td></tr>
<tr class="trowtit"><td  class="trowtit" colspan="2">Initial value</td><td colspan="2">0xE0020000</td></tr>
<tr class="trowtit"><td  class="trowtit" colspan="2">After-reset value</td><td colspan="2">0xFFFFFFFF</td></tr>
<tr><td class="ttitle2">Bit</td><td class="ttitle2">Field</td><td class="ttitle2">Value</td><td class="ttitle2">Description</td></tr>
<tr><td>0 - 31</td><td>PID</td><td>0x80000000</td><td>Port Input Disable</td>
</tr></table>
<div class="reghdr1">GPIOA_PDOR</div>
<div class="regdiag">
<table class="regtbl">
<tr class="trd1r">
<td class="trd1c">Bit</td><td>31</td><td>30</td><td>29</td><td>28</td><td>27</td><td>26</td><td>25</td><td>24</td><td>23</td>
<td>22</td><td>21</td><td>20</td><td>19</td><td>18</td><td>17</td><td>16</td>
</tr>
<tr>
<td class="trd1c">R</td><td colspan="16" rowspan="2">PDO</td>
</tr>
<tr>
<td class="trd1c">W</td>
</tr>
<tr class="trd1r">
<td class="trd1c">Reset</td><td>0</td><td>0</td><td>0</td><td>0</td><td>0</td><td>0</td><td>0</td><td>0</td><td>0</td><td>0</td>
<td>0</td><td>0</td><td>0</td><td>0</td><td>0</td><td>0</td>
</tr>
</table>
<table class="regtbl">
<tr class="trd1r">
<td class="trd1c">Bit</td><td>15</td><td>14</td><td>13</td><td>12</td><td>11</td><td>10</td><td>9</td><td>8</td><td>7</td>
<td>6</td><td>5</td><td>4</td><td>3</td><td>2</td><td>1</td><td>0</td>
</tr>
<tr>
<td class="trd1c">R</td><td colspan="32" rowspan="2">PDO</td>
</tr>
<tr>
<td class="trd1c">W</td>
</tr>
<tr class="trd1r">
<td class="trd1c">Reset</td><td>0</td><td>0</td><td>0</td><td>0</td><td>0</td><td>0</td><td>0</td><td>0</td><td>0</td><td>0</td>
<td>0</td><td>0</td><td>0</td><td>0</td><td>0</td><td>0</td>
</tr>
</table>
        
</div>
<table class="regtbl2"><tr><td class="trowtit" colspan="2">Address</td><td colspan="2">0x400FF000</td></tr>
<tr class="trowtit"><td  class="trowtit" colspan="2">Initial value</td><td colspan="2">0x00000000</td></tr>
<tr class="trowtit"><td  class="trowtit" colspan="2">After-reset value</td><td colspan="2">0x00000000</td></tr>
<tr><td class="ttitle2">Bit</td><td class="ttitle2">Field</td><td class="ttitle2">Value</td><td class="ttitle2">Description</td></tr>
<tr><td>0 - 31</td><td>PDO</td><td>0x00</td><td>Port Data Output</td>
</tr></table>
*/
/*!
\page BitIoLdd8_settings Component Settings
\code
**          Component name                                 : BitIoLdd8
**          Pin for I/O                                    : PTA6/KBI0_P6/FTM2_FLT1/ACMP1_IN0/ADC0_SE2
**          Pin signal                                     : 
**          Direction                                      : Output
**          Initialization                                 : 
**            Init. direction                              : Output
**            Init. value                                  : 0
**            Auto initialization                          : yes
**          Safe mode                                      : yes
\endcode
*/
