[2021.03.29 18:35:05] [0000m.00s.038ms] [0] WELCOME
[2021.03.29 18:35:05] [0000m.00s.039ms] [1] iCDB Server ver.2.207, qgLvIY/Eg4ge+fhn3Vi3jQ, build:15449124 created 2019-12-19 14:24:55, sources stamp:qgLvIY/Eg4ge+fhn3Vi3jQ
[2021.03.29 18:35:05] [0000m.00s.039ms] [1] Restricted Copyright Siemens 2020. All Rights Reserved.
[2021.03.29 18:35:05] [0000m.00s.039ms] [1] Base flow version [VX.2.7]
[2021.03.29 18:35:05] [0000m.00s.039ms] [1] Install Id [2119024], Flow Id [PADS VX.2.7], Full Flow Name [PADS VX.2.7], Exact Access Date [2020/02/01]
[2021.03.29 18:35:05] [0000m.00s.039ms] [1] UPDATE Install Info, Install Id [2150279], UPDATE Name [PADS VX.2.7 - Update 1]
[2021.03.29 18:35:05] [0000m.00s.060ms] [1] Machine [LAPTOP-KS6TQ7BV]  IP [10.0.0.173,127.0.0.1,192.168.56.1]  User [losin]  PID [13804]
[2021.03.29 18:35:05] [0000m.00s.060ms] [1] Operating system [Microsoft Windows 10 Home Premium Edition, 64-bit (build 18363)]
[2021.03.29 18:35:05] [0000m.00s.060ms] [1] Current working dir [C:\Users\losin\Desktop\p1]
[2021.03.29 18:35:05] [0000m.00s.060ms] [1] PATH [C:\MentorGraphics\PADSVX.2.7\SDD_HOME\common\win32\bin;C:\MentorGraphics\PADSVX.2.7\SDD_HOME\common\win32\lib;C:\MentorGraphics\PADSVX.2.7\SDD_HOME\common\win64\lib;C:\MentorGraphics\PADSVX.2.7\SDD_HOME\common\win32\jre\default\bin;C:\MentorGraphics\PADSVX.2.7\MGC_HOME.ixn\bin;C:\MentorGraphics\PADSVX.2.7\MGC_HOME.ixn\lib;C:\Program Files (x86)\NVIDIA Corporation\PhysX\Common;C:\WINDOWS\system32;C:\WINDOWS;C:\WINDOWS\System32\Wbem;C:\WINDOWS\System32\WindowsPowerShell\v1.0\;C:\WINDOWS\System32\OpenSSH\;C:\Program Files (x86)\Intel\Intel(R) Management Engine Components\DAL;C:\Program Files\Intel\Intel(R) Management Engine Components\DAL;C:\Program Files (x86)\Intel\Intel(R) Management Engine Components\IPT;C:\Program Files\Intel\Intel(R) Management Engine Components\IPT;C:\Program Files\Microsoft SQL Server\Client SDK\ODBC\110\Tools\Binn\;C:\Program Files (x86)\Microsoft SQL Server\120\Tools\Binn\;C:\Program Files\Microsoft SQL Server\120\Tools\Binn\;C:\Program Files\Microsoft SQL Server\120\DTS\Binn\;C:\Program Files (x86)\Windows Kits\8.1\Windows Performance Toolkit\;C:\Program Files\TortoiseGit\bin;C:\Program Files\MATLAB\R2017b\runtime\win64;C:\Program Files\MATLAB\R2017b\bin;C:\Users\losin\AppData\Local\Microsoft\WindowsApps;C:\MentorGraphics\PADSVX.2.7\SDD_HOME\CAMCAD]
[2021.03.29 18:35:05] [0000m.00s.060ms] [1] SDD_HOME [C:\MentorGraphics\PADSVX.2.7\SDD_HOME] on file system [NTFS]
[2021.03.29 18:35:05] [0000m.00s.060ms] [1] SDD_PLATFORM [win32]
[2021.03.29 18:35:05] [0000m.00s.060ms] [1] WDIR [C:\PADS Projects;C:\MentorGraphics\PADSVX.2.7\SDD_HOME\standard;]
[2021.03.29 18:35:05] [0000m.00s.061ms] [1] Local iCDB working dir [C:\PADS Projects\iCDB] on file system [NTFS]
[2021.03.29 18:35:05] [0000m.00s.061ms] [2] S: Loading config files
[2021.03.29 18:35:05] [0000m.00s.072ms] [1] Config file [C:\Users\losin\Desktop\p1\database\cdbsvr\Server.cfg] not found
[2021.03.29 18:35:05] [0000m.00s.077ms] [3] S: Config loaded
[2021.03.29 18:35:05] [0000m.00s.087ms] [0] S: Project path [C:\Users\losin\Desktop\p1\database] on file system [NTFS]
[2021.03.29 18:35:05] [0000m.00s.087ms] [0] S: Project file (.prj) path [C:\Users\losin\Desktop\p1\p1.prj] on file system [NTFS]
[2021.03.29 18:35:05] [0000m.00s.088ms] [1] S: WARNING: Database auto-repair support DISABLED
[2021.03.29 18:35:05] [0000m.00s.088ms] [0] S: Single-user mode (auto)
[2021.03.29 18:35:05] [0000m.00s.088ms] [0] S: Event polling mode autodetection
[2021.03.29 18:35:05] [0000m.00s.090ms] [0] S: Started up automatically by iCDB Client: LAPTOP-KS6TQ7BV:losin:4960
[2021.03.29 18:35:05] [0000m.00s.090ms] [0] S: Auto close mode
[2021.03.29 18:35:05] [0000m.00s.090ms] [0] S: Database ID [9c56-71b6-df90-e31c-453b-b40a-53bb-4060-f1bd-a636-6172-a19d]
[2021.03.29 18:35:05] [0000m.00s.090ms] [0] PathTranslator: BEGIN dumping
[2021.03.29 18:35:05] [0000m.00s.090ms] [0] PathTranslator: Local -> global path prefix list
[2021.03.29 18:35:05] [0000m.00s.090ms] [0] PathTranslator: Global -> local path prefix list
[2021.03.29 18:35:05] [0000m.00s.090ms] [0] PathTranslator: END dumping
[2021.03.29 18:35:05] [0000m.00s.090ms] [0] S: START
[2021.03.29 18:35:05] [0000m.00s.091ms] [0] S: Server startup lock file created
[2021.03.29 18:35:05] [0000m.00s.092ms] [0] S: Listening for client connections on port [10002]
[2021.03.29 18:35:05] [0000m.00s.098ms] [0] S: Server network ID [LAPTOP-KS6TQ7BV:10.0.0.173,192.168.56.1,LAPTOP-KS6TQ7BV:10002]
[2021.03.29 18:35:05] [0000m.00s.098ms] [0] S: Server GUID [211c-ae80-f165-4c52-9165-260f-1652-6060-bf6c-a636-6172-a19d]
[2021.03.29 18:35:05] [0000m.00s.098ms] [0] S: Project GUID [9c56-71b6-df90-e31c-453b-b40a-53bb-4060-f1bd-a636-6172-a19d]
[2021.03.29 18:35:05] [0000m.00s.110ms] [0] S: Wrote data to server address file
[2021.03.29 18:35:05] [0000m.00s.111ms] [0] S: Server startup lock file removed
[2021.03.29 18:35:05] [0000m.00s.111ms] [1] ProjectBackupManager: Setting project file (.prj) path: [C:\Users\losin\Desktop\p1\p1.prj]
[2021.03.29 18:35:05] [0000m.00s.276ms] [0] S: Plugins loaded: [PIM] [ENetGen70] 
[2021.03.29 18:35:05] [0000m.00s.277ms] [1] ServerToolkit: INFO: Plugin not found in SDD_ICDB_BIN [C:\MentorGraphics\PADSVX.2.7\SDD_HOME\iCDB\win32\bin]
[2021.03.29 18:35:05] [0000m.00s.277ms] [1] ServerToolkit: INFO: Plugin not found in SDD_COMMON_BIN [C:\MentorGraphics\PADSVX.2.7\SDD_HOME\common\win32\bin]
[2021.03.29 18:35:05] [0000m.00s.279ms] [1] ServerToolkit: INFO: Plugin not found in PATH
[2021.03.29 18:35:05] [0000m.00s.279ms] [1] ServerToolkit: INFO: Plugin not found in CWD
[2021.03.29 18:35:05] [0000m.00s.279ms] [1] ServerToolkit: INFO: returning just plugin exe name!
[2021.03.29 18:35:05] [0000m.00s.280ms] [0] S: Local disc access time: 126 us
[2021.03.29 18:35:05] [0000m.00s.280ms] [0] S: File server access time: 120 us
[2021.03.29 18:35:05] [0000m.00s.283ms] [0] Single file [C:\Users\losin\Desktop\p1\database\icdb.dat] size [262896 (256.7 kB)]
[2021.03.29 18:35:05] [0000m.00s.283ms] [1] Single file [C:\Users\losin\Desktop\p1\database\icdb.dat] opened in read-write mode
[2021.03.29 18:35:05] [0000m.00s.283ms] [0] SingleFile: [0000-0000-0000-0000] SFI header version check [1009] [1009]
[2021.03.29 18:35:05] [0000m.00s.283ms] [0] Database GUARD OK: [262896]
[2021.03.29 18:35:05] [0000m.00s.285ms] [0] SingleFile: [0000-0000-0000-0000] SFI header version check [1009] [1009]
[2021.03.29 18:35:05] [0000m.00s.285ms] [0] Database GUARD OK: [262896]
[2021.03.29 18:35:05] [0000m.00s.285ms] [0] SingleFile: [0000-0000-0000-0000] SFI header version check [1009] [1009]
[2021.03.29 18:35:05] [0000m.00s.285ms] [0] Database GUARD OK: [262896]
[2021.03.29 18:35:05] [0000m.00s.286ms] [0] SingleFile: [0000-0000-0000-0000] SFI header version check [1009] [1009]
[2021.03.29 18:35:05] [0000m.00s.286ms] [0] Database GUARD OK: [262896]
[2021.03.29 18:35:05] [0000m.00s.286ms] [0] SingleFile: [0000-0000-0000-0000] SFI header version check [1009] [1009]
[2021.03.29 18:35:05] [0000m.00s.286ms] [0] Database GUARD OK: [262896]
[2021.03.29 18:35:05] [0000m.00s.286ms] [0] SingleFile: [c34f-dce6-94ce-c50a] SFI version check [1009] [1009]
[2021.03.29 18:35:05] [0000m.00s.296ms] [0] SingleFile: [c34f-dce6-94ce-c50a] Database SFI header has been read in [9ms 757us]
[2021.03.29 18:35:05] [0000m.00s.307ms] [0] iCDB Server PI: Server & plugin session [94]
[2021.03.29 18:35:05] [0000m.00s.307ms] [0] iCDB Server PI: Opening database [C:\Users\losin\Desktop\p1\database]
[2021.03.29 18:35:05] [0000m.00s.307ms] [0] iCDB Server PI: Database [C:\Users\losin\Desktop\p1\database] opened
[2021.03.29 18:35:05] [0000m.00s.369ms] [0] iCDB Database: Checking existence of constraint definitions
[2021.03.29 18:35:05] [0000m.00s.369ms] [0] iCDB Database: Checking constraint definitions version
[2021.03.29 18:35:05] [0000m.00s.441ms] [1] iCDB Database: Constraint definitions version [ce_ee.cns=7.10.69] up to date
[2021.03.29 18:35:05] [0000m.00s.453ms] [0] iCDB Server PI: Initializing plugins
[2021.03.29 18:35:05] [0000m.00s.454ms] [0] iCDB Server PI: Plugins initialized
[2021.03.29 18:35:05] [0000m.00s.454ms] [0] S: iCDB database loaded
[2021.03.29 18:35:05] [0000m.00s.456ms] [0] S: Starting threads
[2021.03.29 18:35:05] [0000m.00s.457ms] [0] BT: Listening for broadcast messages on port [10000]
[2021.03.29 18:35:05] [0000m.00s.457ms] [1] CMT: There are no clients - waiting [10 seconds]
[2021.03.29 18:35:05] [0000m.00s.460ms] [0] IT: Session [95] for host [LAPTOP-KS6TQ7BV] user [losin] client type[0] clsvrPluginID[0] with process ID [4960] created
[2021.03.29 18:35:05] [0000m.00s.466ms] [1] SC[95]: Registered sub-client [DxD] with ID [1] for session ID [95] host [LAPTOP-KS6TQ7BV] user [losin] process ID [4960]
[2021.03.29 18:35:05] [0000m.00s.467ms] [0] MWT: WindowProc: WM_NCCREATE
[2021.03.29 18:35:06] [0000m.00s.558ms] [1] CMT: There are [1] clients now: 95
[2021.03.29 18:35:06] [0000m.00s.755ms] [1] SC[95]: Registered sub-client [TransactionRollbackSubClient] with ID [2] for session ID [95] host [LAPTOP-KS6TQ7BV] user [losin] process ID [4960]
[2021.03.29 18:35:06] [0000m.00s.800ms] [1] SC[95]: Registered sub-client [SymbolEditor] with ID [3] for session ID [95] host [LAPTOP-KS6TQ7BV] user [losin] process ID [4960]
[2021.03.29 18:35:06] [0000m.00s.814ms] [1] SC[95]: Registered sub-client [SelectionHolder] with ID [4] for session ID [95] host [LAPTOP-KS6TQ7BV] user [losin] process ID [4960]
[2021.03.29 18:35:06] [0000m.00s.889ms] [1] SC[95]: Registered sub-client [Core::DesignListener-332880696-0] with ID [5] for session ID [95] host [LAPTOP-KS6TQ7BV] user [losin] process ID [4960]
[2021.03.29 18:35:06] [0000m.00s.898ms] [1] SC[95]: Registered sub-client [BlockCacheDxD:332880792] with ID [6] for session ID [95] host [LAPTOP-KS6TQ7BV] user [losin] process ID [4960]
[2021.03.29 18:35:06] [0000m.00s.904ms] [1] SC[95]: Registered sub-client [Core::NetFlatData-24623] with ID [7] for session ID [95] host [LAPTOP-KS6TQ7BV] user [losin] process ID [4960]
[2021.03.29 18:35:06] [0000m.00s.972ms] [1] SC[95]: Registered sub-client [SystemDesignDll] with ID [8] for session ID [95] host [LAPTOP-KS6TQ7BV] user [losin] process ID [4960]
[2021.03.29 18:35:06] [0000m.00s.985ms] [1] SC[95]: UnRegistered sub-client [SystemDesignDll] with ID [8] for session ID [95] host [LAPTOP-KS6TQ7BV] user [losin] process ID [4960]
[2021.03.29 18:35:06] [0000m.00s.990ms] [1] SC[95]: Registered sub-client [SystemDesignDll] with ID [9] for session ID [95] host [LAPTOP-KS6TQ7BV] user [losin] process ID [4960]
[2021.03.29 18:35:12] [0000m.07s.290ms] [1] SC[95]: Registered sub-client [DesignSearcher2] with ID [10] for session ID [95] host [LAPTOP-KS6TQ7BV] user [losin] process ID [4960]
[2021.03.29 18:35:12] [0000m.07s.304ms] [1] SC[95]: Registered sub-client [HdlProject] with ID [11] for session ID [95] host [LAPTOP-KS6TQ7BV] user [losin] process ID [4960]
[2021.03.29 18:35:12] [0000m.07s.316ms] [1] SC[95]: Registered sub-client [Navigator] with ID [12] for session ID [95] host [LAPTOP-KS6TQ7BV] user [losin] process ID [4960]
[2021.03.29 18:35:12] [0000m.07s.354ms] [1] SC[95]: Registered sub-client [OutputWindow] with ID [13] for session ID [95] host [LAPTOP-KS6TQ7BV] user [losin] process ID [4960]
[2021.03.29 18:35:12] [0000m.07s.364ms] [1] SC[95]: Registered sub-client [PlaceDevice] with ID [14] for session ID [95] host [LAPTOP-KS6TQ7BV] user [losin] process ID [4960]
[2021.03.29 18:35:13] [0000m.07s.654ms] [1] SC[95]: Registered sub-client [FFSearch_RBHost] with ID [15] for session ID [95] host [LAPTOP-KS6TQ7BV] user [losin] process ID [4960]
[2021.03.29 18:35:13] [0000m.07s.661ms] [1] SC[95]: Registered sub-client [LocalSymbolsDataProvider] with ID [16] for session ID [95] host [LAPTOP-KS6TQ7BV] user [losin] process ID [4960]
[2021.03.29 18:35:15] [0000m.09s.744ms] [1] SC[95]: Registered sub-client [FFSSelListener] with ID [17] for session ID [95] host [LAPTOP-KS6TQ7BV] user [losin] process ID [4960]
[2021.03.29 18:35:15] [0000m.09s.750ms] [1] SC[95]: Registered sub-client [SAE] with ID [18] for session ID [95] host [LAPTOP-KS6TQ7BV] user [losin] process ID [4960]
[2021.03.29 18:35:15] [0000m.09s.770ms] [1] SC[95]: Registered sub-client [DxConstraints] with ID [19] for session ID [95] host [LAPTOP-KS6TQ7BV] user [losin] process ID [4960]
[2021.03.29 18:35:15] [0000m.09s.774ms] [1] SC[95]: Registered sub-client [CCZAddin] with ID [20] for session ID [95] host [LAPTOP-KS6TQ7BV] user [losin] process ID [4960]
[2021.03.29 18:35:15] [0000m.09s.777ms] [1] SC[95]: Registered sub-client [DxThumbnails] with ID [21] for session ID [95] host [LAPTOP-KS6TQ7BV] user [losin] process ID [4960]
[2021.03.29 18:35:15] [0000m.09s.781ms] [1] SC[95]: Registered sub-client [MyParts] with ID [22] for session ID [95] host [LAPTOP-KS6TQ7BV] user [losin] process ID [4960]
[2021.03.29 18:35:15] [0000m.09s.806ms] [1] SC[95]: Registered sub-client [PinsList] with ID [23] for session ID [95] host [LAPTOP-KS6TQ7BV] user [losin] process ID [4960]
[2021.03.29 18:35:15] [0000m.09s.932ms] [1] SC[95]: Registered sub-client [toolboxes] with ID [24] for session ID [95] host [LAPTOP-KS6TQ7BV] user [losin] process ID [4960]
[2021.03.29 18:35:15] [0000m.09s.990ms] [1] SC[95]: Registered sub-client [IBDInstanceDialog] with ID [25] for session ID [95] host [LAPTOP-KS6TQ7BV] user [losin] process ID [4960]
[2021.03.29 18:35:15] [0000m.09s.993ms] [1] SC[95]: Registered sub-client [ProjectIntegrationIcdbCacheDxD:449080144] with ID [26] for session ID [95] host [LAPTOP-KS6TQ7BV] user [losin] process ID [4960]
[2021.03.29 18:35:15] [0000m.10s.045ms] [1] SC[95]: Registered sub-client [SheetConnectorsCacheDxD:1617057315] with ID [27] for session ID [95] host [LAPTOP-KS6TQ7BV] user [losin] process ID [4960]
[2021.03.29 18:35:15] [0000m.10s.159ms] [1] SC[95]: Registered sub-client [NetsNamesCollectorDxD:1617057315] with ID [28] for session ID [95] host [LAPTOP-KS6TQ7BV] user [losin] process ID [4960]
[2021.03.29 18:35:15] [0000m.10s.178ms] [1] SC[95]: Registered sub-client [PartReplaceUtils] with ID [29] for session ID [95] host [LAPTOP-KS6TQ7BV] user [losin] process ID [4960]
[2021.03.29 18:35:15] [0000m.10s.184ms] [1] SC[95]: Registered sub-client [PartReplaceUtilsSelectionListener] with ID [30] for session ID [95] host [LAPTOP-KS6TQ7BV] user [losin] process ID [4960]
[2021.03.29 18:35:15] [0000m.10s.198ms] [1] SC[95]: Registered sub-client [xprob] with ID [31] for session ID [95] host [LAPTOP-KS6TQ7BV] user [losin] process ID [4960]
[2021.03.29 18:35:15] [0000m.10s.262ms] [1] SC[95]: Registered sub-client [StartServerClient19c4] with ID [32] for session ID [95] host [LAPTOP-KS6TQ7BV] user [losin] process ID [4960]
[2021.03.29 18:35:15] [0000m.10s.263ms] [1] SC[95]: UnRegistered sub-client [StartServerClient19c4] with ID [32] for session ID [95] host [LAPTOP-KS6TQ7BV] user [losin] process ID [4960]
[2021.03.29 18:35:20] [0000m.14s.904ms] [1] SC[95]: Registered sub-client [ObjectHolder_644174320] with ID [33] for session ID [95] host [LAPTOP-KS6TQ7BV] user [losin] process ID [4960]
[2021.03.29 18:35:20] [0000m.14s.907ms] [1] SC[95]: Registered sub-client [BlockCacheDxD:648145960] with ID [34] for session ID [95] host [LAPTOP-KS6TQ7BV] user [losin] process ID [4960]
[2021.03.29 18:35:20] [0000m.14s.912ms] [1] SC[95]: Registered sub-client [GlobalNetAliasUpdater_644176400] with ID [35] for session ID [95] host [LAPTOP-KS6TQ7BV] user [losin] process ID [4960]
[2021.03.29 18:35:20] [0000m.14s.916ms] [1] SC[95]: Registered sub-client [IcdbNetProcessorSubClientDxD:672220472] with ID [36] for session ID [95] host [LAPTOP-KS6TQ7BV] user [losin] process ID [4960]
[2021.03.29 18:35:20] [0000m.15s.465ms] [1] SC[95]: Registered sub-client [DxDbSearch] with ID [37] for session ID [95] host [LAPTOP-KS6TQ7BV] user [losin] process ID [4960]
[2021.03.29 18:35:29] [0000m.24s.379ms] [1] SC[95]: UnRegistered sub-client [DesignSearcher2] with ID [10] for session ID [95] host [LAPTOP-KS6TQ7BV] user [losin] process ID [4960]
[2021.03.29 18:35:30] [0000m.24s.548ms] [0] DFAMT: File server access time: 60 us
[2021.03.29 18:35:32] [0000m.27s.258ms] [0] IT: Session [96] for host [LAPTOP-KS6TQ7BV] user [losin] client type[0] clsvrPluginID[0] with process ID [20968] created
[2021.03.29 18:35:32] [0000m.27s.259ms] [1] SC[96]: Registered sub-client [pcbui] with ID [1] for session ID [96] host [LAPTOP-KS6TQ7BV] user [losin] process ID [20968]
[2021.03.29 18:35:32] [0000m.27s.346ms] [1] CMT: There are [2] clients now: 95, 96
[2021.03.29 18:35:33] [0000m.27s.578ms] [0] IT: Session [97] for host [LAPTOP-KS6TQ7BV] user [losin] client type[0] clsvrPluginID[0] with process ID [2472] created
[2021.03.29 18:35:33] [0000m.27s.579ms] [1] SC[97]: Registered sub-client [icdb2wir] with ID [1] for session ID [97] host [LAPTOP-KS6TQ7BV] user [losin] process ID [2472]
[2021.03.29 18:35:33] [0000m.27s.652ms] [1] CMT: There are [3] clients now: 95, 96, 97
[2021.03.29 18:35:33] [0000m.27s.757ms] [1] SC[97]: UnRegistered sub-client [icdb2wir] with ID [1] for session ID [97] host [LAPTOP-KS6TQ7BV] user [losin] process ID [2472]
[2021.03.29 18:35:33] [0000m.27s.854ms] [1] CMT: Removed client [97]
[2021.03.29 18:35:33] [0000m.27s.854ms] [1] CMT: There are [2] clients now: 95, 96
[2021.03.29 18:35:36] [0000m.30s.623ms] [0] IT: Session [98] for host [LAPTOP-KS6TQ7BV] user [losin] client type[0] clsvrPluginID[0] with process ID [1972] created
[2021.03.29 18:35:36] [0000m.30s.624ms] [1] SC[98]: Registered sub-client [PCBfwd/PCBbck] with ID [1] for session ID [98] host [LAPTOP-KS6TQ7BV] user [losin] process ID [1972]
[2021.03.29 18:35:36] [0000m.30s.674ms] [1] CMT: There are [3] clients now: 95, 96, 98
[2021.03.29 18:35:37] [0000m.31s.772ms] [1] SC[98]: Registered sub-client [LSUDX_PCB] with ID [2] for session ID [98] host [LAPTOP-KS6TQ7BV] user [losin] process ID [1972]
[2021.03.29 18:35:37] [0000m.31s.793ms] [1] SC[98]: Registered sub-client [ObjectHolder_133496688] with ID [3] for session ID [98] host [LAPTOP-KS6TQ7BV] user [losin] process ID [1972]
[2021.03.29 18:35:37] [0000m.31s.796ms] [1] SC[98]: Registered sub-client [BlockCacheDxD:138258616] with ID [4] for session ID [98] host [LAPTOP-KS6TQ7BV] user [losin] process ID [1972]
[2021.03.29 18:35:37] [0000m.31s.799ms] [1] SC[98]: Registered sub-client [GlobalNetAliasUpdater_133497000] with ID [5] for session ID [98] host [LAPTOP-KS6TQ7BV] user [losin] process ID [1972]
[2021.03.29 18:35:37] [0000m.31s.802ms] [1] SC[98]: Registered sub-client [IcdbNetProcessorSubClientDxD:145005744] with ID [6] for session ID [98] host [LAPTOP-KS6TQ7BV] user [losin] process ID [1972]
[2021.03.29 18:35:37] [0000m.31s.996ms] [1] SC[98]: UnRegistered sub-client [GlobalNetAliasUpdater_133497000] with ID [5] for session ID [98] host [LAPTOP-KS6TQ7BV] user [losin] process ID [1972]
[2021.03.29 18:35:37] [0000m.31s.997ms] [1] SC[98]: UnRegistered sub-client [BlockCacheDxD:138258616] with ID [4] for session ID [98] host [LAPTOP-KS6TQ7BV] user [losin] process ID [1972]
[2021.03.29 18:35:37] [0000m.31s.997ms] [1] SC[98]: UnRegistered sub-client [ObjectHolder_133496688] with ID [3] for session ID [98] host [LAPTOP-KS6TQ7BV] user [losin] process ID [1972]
[2021.03.29 18:35:37] [0000m.31s.997ms] [1] SC[98]: UnRegistered sub-client [IcdbNetProcessorSubClientDxD:145005744] with ID [6] for session ID [98] host [LAPTOP-KS6TQ7BV] user [losin] process ID [1972]
[2021.03.29 18:35:37] [0000m.31s.998ms] [1] SC[98]: UnRegistered sub-client [PCBfwd/PCBbck] with ID [1] for session ID [98] host [LAPTOP-KS6TQ7BV] user [losin] process ID [1972]
[2021.03.29 18:35:37] [0000m.32s.003ms] [1] SC[98]: UnRegistered sub-client [LSUDX_PCB] with ID [2] for session ID [98] host [LAPTOP-KS6TQ7BV] user [losin] process ID [1972]
[2021.03.29 18:35:37] [0000m.32s.084ms] [1] CMT: Removed client [98]
[2021.03.29 18:35:37] [0000m.32s.084ms] [1] CMT: There are [2] clients now: 95, 96
[2021.03.29 18:35:37] [0000m.32s.183ms] [1] SC[95]: UnRegistered sub-client [GlobalNetAliasUpdater_644176400] with ID [35] for session ID [95] host [LAPTOP-KS6TQ7BV] user [losin] process ID [4960]
[2021.03.29 18:35:37] [0000m.32s.183ms] [1] SC[95]: UnRegistered sub-client [BlockCacheDxD:648145960] with ID [34] for session ID [95] host [LAPTOP-KS6TQ7BV] user [losin] process ID [4960]
[2021.03.29 18:35:37] [0000m.32s.184ms] [1] SC[95]: UnRegistered sub-client [ObjectHolder_644174320] with ID [33] for session ID [95] host [LAPTOP-KS6TQ7BV] user [losin] process ID [4960]
[2021.03.29 18:35:37] [0000m.32s.184ms] [1] SC[95]: UnRegistered sub-client [IcdbNetProcessorSubClientDxD:672220472] with ID [36] for session ID [95] host [LAPTOP-KS6TQ7BV] user [losin] process ID [4960]
[2021.03.29 18:35:37] [0000m.32s.199ms] [1] SC[95]: Registered sub-client [ObjectHolder_644174320] with ID [38] for session ID [95] host [LAPTOP-KS6TQ7BV] user [losin] process ID [4960]
[2021.03.29 18:35:37] [0000m.32s.203ms] [1] SC[95]: Registered sub-client [BlockCacheDxD:646348328] with ID [39] for session ID [95] host [LAPTOP-KS6TQ7BV] user [losin] process ID [4960]
[2021.03.29 18:35:37] [0000m.32s.207ms] [1] SC[95]: Registered sub-client [GlobalNetAliasUpdater_644174424] with ID [40] for session ID [95] host [LAPTOP-KS6TQ7BV] user [losin] process ID [4960]
[2021.03.29 18:35:37] [0000m.32s.212ms] [1] SC[95]: Registered sub-client [IcdbNetProcessorSubClientDxD:672419128] with ID [41] for session ID [95] host [LAPTOP-KS6TQ7BV] user [losin] process ID [4960]
[2021.03.29 18:35:37] [0000m.32s.448ms] [1] SC[96]: UnRegistered sub-client [pcbui] with ID [1] for session ID [96] host [LAPTOP-KS6TQ7BV] user [losin] process ID [20968]
[2021.03.29 18:35:37] [0000m.32s.487ms] [1] CMT: Removed client [96]
[2021.03.29 18:35:37] [0000m.32s.487ms] [1] CMT: There are [1] clients now: 95
[2021.03.29 18:35:38] [0000m.32s.886ms] [1] SC[95]: Registered sub-client [DesignSearcher2] with ID [42] for session ID [95] host [LAPTOP-KS6TQ7BV] user [losin] process ID [4960]
[2021.03.29 18:40:49] [0005m.43s.740ms] [0] IT: Session [99] for host [LAPTOP-KS6TQ7BV] user [losin] client type[0] clsvrPluginID[0] with process ID [20624] created
[2021.03.29 18:40:49] [0005m.43s.742ms] [1] SC[99]: Registered sub-client [ViewDrawLink] with ID [1] for session ID [99] host [LAPTOP-KS6TQ7BV] user [losin] process ID [20624]
[2021.03.29 18:40:49] [0005m.43s.819ms] [1] SC[99]: UnRegistered sub-client [ViewDrawLink] with ID [1] for session ID [99] host [LAPTOP-KS6TQ7BV] user [losin] process ID [20624]
[2021.03.29 18:40:49] [0005m.43s.838ms] [1] CMT: There are [2] clients now: 95, 99
[2021.03.29 18:40:49] [0005m.43s.838ms] [1] CMT: Removed client [99]
[2021.03.29 18:40:49] [0005m.43s.838ms] [1] CMT: There are [1] clients now: 95
[2021.03.29 18:43:32] [0008m.27s.384ms] [0] IT: Session [100] for host [LAPTOP-KS6TQ7BV] user [losin] client type[0] clsvrPluginID[0] with process ID [20624] created
[2021.03.29 18:43:32] [0008m.27s.386ms] [1] SC[100]: Registered sub-client [ViewDrawLink] with ID [1] for session ID [100] host [LAPTOP-KS6TQ7BV] user [losin] process ID [20624]
[2021.03.29 18:43:32] [0008m.27s.411ms] [1] CMT: There are [2] clients now: 95, 100
[2021.03.29 18:43:33] [0008m.27s.790ms] [0] IT: Session [101] for host [LAPTOP-KS6TQ7BV] user [losin] client type[0] clsvrPluginID[0] with process ID [612] created
[2021.03.29 18:43:33] [0008m.27s.792ms] [1] SC[101]: Registered sub-client [icdb2wir] with ID [1] for session ID [101] host [LAPTOP-KS6TQ7BV] user [losin] process ID [612]
[2021.03.29 18:43:33] [0008m.27s.814ms] [1] CMT: There are [3] clients now: 95, 100, 101
[2021.03.29 18:43:33] [0008m.28s.013ms] [1] SC[101]: UnRegistered sub-client [icdb2wir] with ID [1] for session ID [101] host [LAPTOP-KS6TQ7BV] user [losin] process ID [612]
[2021.03.29 18:43:33] [0008m.28s.016ms] [1] CMT: Removed client [101]
[2021.03.29 18:43:33] [0008m.28s.016ms] [1] CMT: There are [2] clients now: 95, 100
[2021.03.29 18:43:35] [0008m.29s.806ms] [0] IT: Session [102] for host [LAPTOP-KS6TQ7BV] user [losin] client type[0] clsvrPluginID[0] with process ID [1368] created
[2021.03.29 18:43:35] [0008m.29s.808ms] [1] SC[102]: Registered sub-client [PCBfwd/PCBbck] with ID [1] for session ID [102] host [LAPTOP-KS6TQ7BV] user [losin] process ID [1368]
[2021.03.29 18:43:35] [0008m.29s.828ms] [1] CMT: There are [3] clients now: 95, 100, 102
[2021.03.29 18:43:36] [0008m.30s.959ms] [1] SC[102]: Registered sub-client [LSUDX_PCB] with ID [2] for session ID [102] host [LAPTOP-KS6TQ7BV] user [losin] process ID [1368]
[2021.03.29 18:43:36] [0008m.30s.982ms] [1] SC[102]: Registered sub-client [ObjectHolder_142086728] with ID [3] for session ID [102] host [LAPTOP-KS6TQ7BV] user [losin] process ID [1368]
[2021.03.29 18:43:36] [0008m.30s.986ms] [1] SC[102]: Registered sub-client [BlockCacheDxD:133455360] with ID [4] for session ID [102] host [LAPTOP-KS6TQ7BV] user [losin] process ID [1368]
[2021.03.29 18:43:36] [0008m.30s.990ms] [1] SC[102]: Registered sub-client [GlobalNetAliasUpdater_142085688] with ID [5] for session ID [102] host [LAPTOP-KS6TQ7BV] user [losin] process ID [1368]
[2021.03.29 18:43:36] [0008m.30s.994ms] [1] SC[102]: Registered sub-client [IcdbNetProcessorSubClientDxD:149393280] with ID [6] for session ID [102] host [LAPTOP-KS6TQ7BV] user [losin] process ID [1368]
[2021.03.29 18:43:36] [0008m.31s.238ms] [1] SC[102]: UnRegistered sub-client [GlobalNetAliasUpdater_142085688] with ID [5] for session ID [102] host [LAPTOP-KS6TQ7BV] user [losin] process ID [1368]
[2021.03.29 18:43:36] [0008m.31s.238ms] [1] SC[102]: UnRegistered sub-client [BlockCacheDxD:133455360] with ID [4] for session ID [102] host [LAPTOP-KS6TQ7BV] user [losin] process ID [1368]
[2021.03.29 18:43:36] [0008m.31s.238ms] [1] SC[102]: UnRegistered sub-client [ObjectHolder_142086728] with ID [3] for session ID [102] host [LAPTOP-KS6TQ7BV] user [losin] process ID [1368]
[2021.03.29 18:43:36] [0008m.31s.238ms] [1] SC[102]: UnRegistered sub-client [IcdbNetProcessorSubClientDxD:149393280] with ID [6] for session ID [102] host [LAPTOP-KS6TQ7BV] user [losin] process ID [1368]
[2021.03.29 18:43:36] [0008m.31s.239ms] [1] SC[102]: UnRegistered sub-client [PCBfwd/PCBbck] with ID [1] for session ID [102] host [LAPTOP-KS6TQ7BV] user [losin] process ID [1368]
[2021.03.29 18:43:36] [0008m.31s.244ms] [1] SC[102]: UnRegistered sub-client [LSUDX_PCB] with ID [2] for session ID [102] host [LAPTOP-KS6TQ7BV] user [losin] process ID [1368]
[2021.03.29 18:43:36] [0008m.31s.338ms] [1] CMT: Removed client [102]
[2021.03.29 18:43:36] [0008m.31s.338ms] [1] CMT: There are [2] clients now: 95, 100
[2021.03.29 18:43:36] [0008m.31s.397ms] [1] SC[95]: UnRegistered sub-client [GlobalNetAliasUpdater_644174424] with ID [40] for session ID [95] host [LAPTOP-KS6TQ7BV] user [losin] process ID [4960]
[2021.03.29 18:43:36] [0008m.31s.397ms] [1] SC[95]: UnRegistered sub-client [BlockCacheDxD:646348328] with ID [39] for session ID [95] host [LAPTOP-KS6TQ7BV] user [losin] process ID [4960]
[2021.03.29 18:43:36] [0008m.31s.398ms] [1] SC[95]: UnRegistered sub-client [ObjectHolder_644174320] with ID [38] for session ID [95] host [LAPTOP-KS6TQ7BV] user [losin] process ID [4960]
[2021.03.29 18:43:36] [0008m.31s.398ms] [1] SC[95]: UnRegistered sub-client [IcdbNetProcessorSubClientDxD:672419128] with ID [41] for session ID [95] host [LAPTOP-KS6TQ7BV] user [losin] process ID [4960]
[2021.03.29 18:43:36] [0008m.31s.410ms] [1] SC[95]: Registered sub-client [ObjectHolder_644177024] with ID [43] for session ID [95] host [LAPTOP-KS6TQ7BV] user [losin] process ID [4960]
[2021.03.29 18:43:36] [0008m.31s.415ms] [1] SC[95]: Registered sub-client [BlockCacheDxD:646346168] with ID [44] for session ID [95] host [LAPTOP-KS6TQ7BV] user [losin] process ID [4960]
[2021.03.29 18:43:36] [0008m.31s.419ms] [1] SC[95]: Registered sub-client [GlobalNetAliasUpdater_644177232] with ID [45] for session ID [95] host [LAPTOP-KS6TQ7BV] user [losin] process ID [4960]
[2021.03.29 18:43:36] [0008m.31s.422ms] [1] SC[95]: Registered sub-client [IcdbNetProcessorSubClientDxD:672421984] with ID [46] for session ID [95] host [LAPTOP-KS6TQ7BV] user [losin] process ID [4960]
[2021.03.29 18:43:37] [0008m.31s.575ms] [1] SC[100]: UnRegistered sub-client [ViewDrawLink] with ID [1] for session ID [100] host [LAPTOP-KS6TQ7BV] user [losin] process ID [20624]
[2021.03.29 18:43:37] [0008m.31s.640ms] [1] CMT: Removed client [100]
[2021.03.29 18:43:37] [0008m.31s.640ms] [1] CMT: There are [1] clients now: 95
[2021.03.29 18:43:37] [0008m.31s.939ms] [0] IT: Session [103] for host [LAPTOP-KS6TQ7BV] user [losin] client type[0] clsvrPluginID[0] with process ID [20624] created
[2021.03.29 18:43:37] [0008m.31s.940ms] [1] SC[103]: Registered sub-client [ViewDrawLink] with ID [1] for session ID [103] host [LAPTOP-KS6TQ7BV] user [losin] process ID [20624]
[2021.03.29 18:43:37] [0008m.31s.942ms] [1] CMT: There are [2] clients now: 95, 103
[2021.03.29 18:43:37] [0008m.32s.023ms] [1] SC[103]: UnRegistered sub-client [ViewDrawLink] with ID [1] for session ID [103] host [LAPTOP-KS6TQ7BV] user [losin] process ID [20624]
[2021.03.29 18:43:37] [0008m.32s.043ms] [1] CMT: Removed client [103]
[2021.03.29 18:43:37] [0008m.32s.043ms] [1] CMT: There are [1] clients now: 95
[2021.03.29 18:43:40] [0008m.34s.976ms] [0] IT: Session [104] for host [LAPTOP-KS6TQ7BV] user [losin] client type[0] clsvrPluginID[0] with process ID [20624] created
[2021.03.29 18:43:40] [0008m.34s.978ms] [1] SC[104]: Registered sub-client [ViewDrawLink] with ID [1] for session ID [104] host [LAPTOP-KS6TQ7BV] user [losin] process ID [20624]
[2021.03.29 18:43:40] [0008m.35s.064ms] [1] CMT: There are [2] clients now: 95, 104
[2021.03.29 18:43:40] [0008m.35s.077ms] [1] SC[104]: UnRegistered sub-client [ViewDrawLink] with ID [1] for session ID [104] host [LAPTOP-KS6TQ7BV] user [losin] process ID [20624]
[2021.03.29 18:43:40] [0008m.35s.165ms] [1] CMT: Removed client [104]
[2021.03.29 18:43:40] [0008m.35s.165ms] [1] CMT: There are [1] clients now: 95
[2021.03.29 18:51:26] [0016m.20s.724ms] [1] SC[95]: UnRegistered sub-client [DesignSearcher2] with ID [42] for session ID [95] host [LAPTOP-KS6TQ7BV] user [losin] process ID [4960]
[2021.03.29 18:51:27] [0016m.22s.476ms] [0] IT: Session [105] for host [LAPTOP-KS6TQ7BV] user [losin] client type[0] clsvrPluginID[0] with process ID [11364] created
[2021.03.29 18:51:27] [0016m.22s.477ms] [1] SC[105]: Registered sub-client [pcbui] with ID [1] for session ID [105] host [LAPTOP-KS6TQ7BV] user [losin] process ID [11364]
[2021.03.29 18:51:28] [0016m.22s.539ms] [1] CMT: There are [2] clients now: 95, 105
[2021.03.29 18:51:28] [0016m.22s.776ms] [0] IT: Session [106] for host [LAPTOP-KS6TQ7BV] user [losin] client type[0] clsvrPluginID[0] with process ID [13108] created
[2021.03.29 18:51:28] [0016m.22s.778ms] [1] SC[106]: Registered sub-client [icdb2wir] with ID [1] for session ID [106] host [LAPTOP-KS6TQ7BV] user [losin] process ID [13108]
[2021.03.29 18:51:28] [0016m.22s.841ms] [1] CMT: There are [3] clients now: 95, 105, 106
[2021.03.29 18:51:28] [0016m.22s.978ms] [1] SC[106]: UnRegistered sub-client [icdb2wir] with ID [1] for session ID [106] host [LAPTOP-KS6TQ7BV] user [losin] process ID [13108]
[2021.03.29 18:51:28] [0016m.23s.043ms] [1] CMT: Removed client [106]
[2021.03.29 18:51:28] [0016m.23s.043ms] [1] CMT: There are [2] clients now: 95, 105
[2021.03.29 18:51:30] [0016m.25s.063ms] [0] IT: Session [107] for host [LAPTOP-KS6TQ7BV] user [losin] client type[0] clsvrPluginID[0] with process ID [18020] created
[2021.03.29 18:51:30] [0016m.25s.065ms] [1] SC[107]: Registered sub-client [PCBfwd/PCBbck] with ID [1] for session ID [107] host [LAPTOP-KS6TQ7BV] user [losin] process ID [18020]
[2021.03.29 18:51:30] [0016m.25s.160ms] [1] CMT: There are [3] clients now: 95, 105, 107
[2021.03.29 18:51:31] [0016m.26s.207ms] [1] SC[107]: Registered sub-client [LSUDX_PCB] with ID [2] for session ID [107] host [LAPTOP-KS6TQ7BV] user [losin] process ID [18020]
[2021.03.29 18:51:31] [0016m.26s.232ms] [1] SC[107]: Registered sub-client [ObjectHolder_151059336] with ID [3] for session ID [107] host [LAPTOP-KS6TQ7BV] user [losin] process ID [18020]
[2021.03.29 18:51:31] [0016m.26s.236ms] [1] SC[107]: Registered sub-client [BlockCacheDxD:133171152] with ID [4] for session ID [107] host [LAPTOP-KS6TQ7BV] user [losin] process ID [18020]
[2021.03.29 18:51:31] [0016m.26s.241ms] [1] SC[107]: Registered sub-client [GlobalNetAliasUpdater_151059440] with ID [5] for session ID [107] host [LAPTOP-KS6TQ7BV] user [losin] process ID [18020]
[2021.03.29 18:51:31] [0016m.26s.244ms] [1] SC[107]: Registered sub-client [IcdbNetProcessorSubClientDxD:149931064] with ID [6] for session ID [107] host [LAPTOP-KS6TQ7BV] user [losin] process ID [18020]
[2021.03.29 18:51:31] [0016m.26s.479ms] [1] SC[107]: UnRegistered sub-client [GlobalNetAliasUpdater_151059440] with ID [5] for session ID [107] host [LAPTOP-KS6TQ7BV] user [losin] process ID [18020]
[2021.03.29 18:51:31] [0016m.26s.480ms] [1] SC[107]: UnRegistered sub-client [BlockCacheDxD:133171152] with ID [4] for session ID [107] host [LAPTOP-KS6TQ7BV] user [losin] process ID [18020]
[2021.03.29 18:51:31] [0016m.26s.480ms] [1] SC[107]: UnRegistered sub-client [ObjectHolder_151059336] with ID [3] for session ID [107] host [LAPTOP-KS6TQ7BV] user [losin] process ID [18020]
[2021.03.29 18:51:31] [0016m.26s.480ms] [1] SC[107]: UnRegistered sub-client [IcdbNetProcessorSubClientDxD:149931064] with ID [6] for session ID [107] host [LAPTOP-KS6TQ7BV] user [losin] process ID [18020]
[2021.03.29 18:51:31] [0016m.26s.481ms] [1] SC[107]: UnRegistered sub-client [PCBfwd/PCBbck] with ID [1] for session ID [107] host [LAPTOP-KS6TQ7BV] user [losin] process ID [18020]
[2021.03.29 18:51:31] [0016m.26s.488ms] [1] SC[107]: UnRegistered sub-client [LSUDX_PCB] with ID [2] for session ID [107] host [LAPTOP-KS6TQ7BV] user [losin] process ID [18020]
[2021.03.29 18:51:32] [0016m.26s.568ms] [1] CMT: Removed client [107]
[2021.03.29 18:51:32] [0016m.26s.568ms] [1] CMT: There are [2] clients now: 95, 105
[2021.03.29 18:51:32] [0016m.27s.041ms] [1] SC[95]: Registered sub-client [VirtualPartActions::backSyncronize] with ID [47] for session ID [95] host [LAPTOP-KS6TQ7BV] user [losin] process ID [4960]
[2021.03.29 18:51:32] [0016m.27s.042ms] [1] SC[95]: UnRegistered sub-client [VirtualPartActions::backSyncronize] with ID [47] for session ID [95] host [LAPTOP-KS6TQ7BV] user [losin] process ID [4960]
[2021.03.29 18:51:32] [0016m.27s.202ms] [1] SC[105]: UnRegistered sub-client [pcbui] with ID [1] for session ID [105] host [LAPTOP-KS6TQ7BV] user [losin] process ID [11364]
[2021.03.29 18:51:32] [0016m.27s.273ms] [1] CMT: Removed client [105]
[2021.03.29 18:51:32] [0016m.27s.273ms] [1] CMT: There are [1] clients now: 95
[2021.03.29 18:51:33] [0016m.27s.603ms] [1] SC[95]: Registered sub-client [DesignSearcher2] with ID [48] for session ID [95] host [LAPTOP-KS6TQ7BV] user [losin] process ID [4960]
[2021.03.29 18:53:07] [0018m.01s.815ms] [0] IT: Session [108] for host [LAPTOP-KS6TQ7BV] user [losin] client type[0] clsvrPluginID[0] with process ID [13304] created
[2021.03.29 18:53:07] [0018m.01s.816ms] [1] SC[108]: Registered sub-client [ViewDrawLink] with ID [1] for session ID [108] host [LAPTOP-KS6TQ7BV] user [losin] process ID [13304]
[2021.03.29 18:53:07] [0018m.01s.820ms] [1] CMT: There are [2] clients now: 95, 108
[2021.03.29 18:53:07] [0018m.01s.891ms] [1] SC[108]: UnRegistered sub-client [ViewDrawLink] with ID [1] for session ID [108] host [LAPTOP-KS6TQ7BV] user [losin] process ID [13304]
[2021.03.29 18:53:07] [0018m.01s.920ms] [1] CMT: Removed client [108]
[2021.03.29 18:53:07] [0018m.01s.921ms] [1] CMT: There are [1] clients now: 95
[2021.03.29 18:53:18] [0018m.13s.048ms] [0] IT: Session [109] for host [LAPTOP-KS6TQ7BV] user [losin] client type[0] clsvrPluginID[0] with process ID [13304] created
[2021.03.29 18:53:18] [0018m.13s.049ms] [1] SC[109]: Registered sub-client [ViewDrawLink] with ID [1] for session ID [109] host [LAPTOP-KS6TQ7BV] user [losin] process ID [13304]
[2021.03.29 18:53:18] [0018m.13s.116ms] [1] CMT: There are [2] clients now: 95, 109
[2021.03.29 18:53:18] [0018m.13s.472ms] [0] IT: Session [110] for host [LAPTOP-KS6TQ7BV] user [losin] client type[0] clsvrPluginID[0] with process ID [19172] created
[2021.03.29 18:53:18] [0018m.13s.474ms] [1] SC[110]: Registered sub-client [icdb2wir] with ID [1] for session ID [110] host [LAPTOP-KS6TQ7BV] user [losin] process ID [19172]
[2021.03.29 18:53:19] [0018m.13s.519ms] [1] CMT: There are [3] clients now: 95, 109, 110
[2021.03.29 18:53:19] [0018m.13s.675ms] [1] SC[110]: UnRegistered sub-client [icdb2wir] with ID [1] for session ID [110] host [LAPTOP-KS6TQ7BV] user [losin] process ID [19172]
[2021.03.29 18:53:19] [0018m.13s.721ms] [1] CMT: Removed client [110]
[2021.03.29 18:53:19] [0018m.13s.721ms] [1] CMT: There are [2] clients now: 95, 109
[2021.03.29 18:53:21] [0018m.15s.759ms] [0] IT: Session [111] for host [LAPTOP-KS6TQ7BV] user [losin] client type[0] clsvrPluginID[0] with process ID [12820] created
[2021.03.29 18:53:21] [0018m.15s.760ms] [1] SC[111]: Registered sub-client [PCBfwd/PCBbck] with ID [1] for session ID [111] host [LAPTOP-KS6TQ7BV] user [losin] process ID [12820]
[2021.03.29 18:53:21] [0018m.15s.835ms] [1] CMT: There are [3] clients now: 95, 109, 111
[2021.03.29 18:53:22] [0018m.16s.895ms] [1] SC[111]: Registered sub-client [LSUDX_PCB] with ID [2] for session ID [111] host [LAPTOP-KS6TQ7BV] user [losin] process ID [12820]
[2021.03.29 18:53:22] [0018m.16s.919ms] [1] SC[111]: Registered sub-client [ObjectHolder_133572040] with ID [3] for session ID [111] host [LAPTOP-KS6TQ7BV] user [losin] process ID [12820]
[2021.03.29 18:53:22] [0018m.16s.923ms] [1] SC[111]: Registered sub-client [BlockCacheDxD:134238208] with ID [4] for session ID [111] host [LAPTOP-KS6TQ7BV] user [losin] process ID [12820]
[2021.03.29 18:53:22] [0018m.16s.926ms] [1] SC[111]: Registered sub-client [GlobalNetAliasUpdater_133572144] with ID [5] for session ID [111] host [LAPTOP-KS6TQ7BV] user [losin] process ID [12820]
[2021.03.29 18:53:22] [0018m.16s.928ms] [1] SC[111]: Registered sub-client [IcdbNetProcessorSubClientDxD:149997736] with ID [6] for session ID [111] host [LAPTOP-KS6TQ7BV] user [losin] process ID [12820]
[2021.03.29 18:53:22] [0018m.17s.148ms] [1] SC[111]: UnRegistered sub-client [GlobalNetAliasUpdater_133572144] with ID [5] for session ID [111] host [LAPTOP-KS6TQ7BV] user [losin] process ID [12820]
[2021.03.29 18:53:22] [0018m.17s.149ms] [1] SC[111]: UnRegistered sub-client [BlockCacheDxD:134238208] with ID [4] for session ID [111] host [LAPTOP-KS6TQ7BV] user [losin] process ID [12820]
[2021.03.29 18:53:22] [0018m.17s.149ms] [1] SC[111]: UnRegistered sub-client [ObjectHolder_133572040] with ID [3] for session ID [111] host [LAPTOP-KS6TQ7BV] user [losin] process ID [12820]
[2021.03.29 18:53:22] [0018m.17s.150ms] [1] SC[111]: UnRegistered sub-client [IcdbNetProcessorSubClientDxD:149997736] with ID [6] for session ID [111] host [LAPTOP-KS6TQ7BV] user [losin] process ID [12820]
[2021.03.29 18:53:22] [0018m.17s.150ms] [1] SC[111]: UnRegistered sub-client [PCBfwd/PCBbck] with ID [1] for session ID [111] host [LAPTOP-KS6TQ7BV] user [losin] process ID [12820]
[2021.03.29 18:53:22] [0018m.17s.157ms] [1] SC[111]: UnRegistered sub-client [LSUDX_PCB] with ID [2] for session ID [111] host [LAPTOP-KS6TQ7BV] user [losin] process ID [12820]
[2021.03.29 18:53:22] [0018m.17s.244ms] [1] CMT: Removed client [111]
[2021.03.29 18:53:22] [0018m.17s.244ms] [1] CMT: There are [2] clients now: 95, 109
[2021.03.29 18:53:23] [0018m.17s.877ms] [1] SC[109]: UnRegistered sub-client [ViewDrawLink] with ID [1] for session ID [109] host [LAPTOP-KS6TQ7BV] user [losin] process ID [13304]
[2021.03.29 18:53:23] [0018m.17s.949ms] [1] CMT: Removed client [109]
[2021.03.29 18:53:23] [0018m.17s.949ms] [1] CMT: There are [1] clients now: 95
[2021.03.29 18:53:23] [0018m.18s.103ms] [0] IT: Session [112] for host [LAPTOP-KS6TQ7BV] user [losin] client type[0] clsvrPluginID[0] with process ID [13304] created
[2021.03.29 18:53:23] [0018m.18s.104ms] [1] SC[112]: Registered sub-client [ViewDrawLink] with ID [1] for session ID [112] host [LAPTOP-KS6TQ7BV] user [losin] process ID [13304]
[2021.03.29 18:53:23] [0018m.18s.150ms] [1] CMT: There are [2] clients now: 95, 112
[2021.03.29 18:53:23] [0018m.18s.186ms] [1] SC[112]: UnRegistered sub-client [ViewDrawLink] with ID [1] for session ID [112] host [LAPTOP-KS6TQ7BV] user [losin] process ID [13304]
[2021.03.29 18:53:23] [0018m.18s.251ms] [1] CMT: Removed client [112]
[2021.03.29 18:53:23] [0018m.18s.251ms] [1] CMT: There are [1] clients now: 95
[2021.03.29 18:53:25] [0018m.20s.198ms] [0] IT: Session [113] for host [LAPTOP-KS6TQ7BV] user [losin] client type[0] clsvrPluginID[0] with process ID [13304] created
[2021.03.29 18:53:25] [0018m.20s.201ms] [1] SC[113]: Registered sub-client [ViewDrawLink] with ID [1] for session ID [113] host [LAPTOP-KS6TQ7BV] user [losin] process ID [13304]
[2021.03.29 18:53:25] [0018m.20s.265ms] [1] CMT: There are [2] clients now: 95, 113
[2021.03.29 18:53:25] [0018m.20s.303ms] [1] SC[113]: UnRegistered sub-client [ViewDrawLink] with ID [1] for session ID [113] host [LAPTOP-KS6TQ7BV] user [losin] process ID [13304]
[2021.03.29 18:53:25] [0018m.20s.365ms] [1] CMT: Removed client [113]
[2021.03.29 18:53:25] [0018m.20s.365ms] [1] CMT: There are [1] clients now: 95
[2021.03.29 18:59:18] [0024m.13s.388ms] [1] SC[95]: UnRegistered sub-client [DesignSearcher2] with ID [48] for session ID [95] host [LAPTOP-KS6TQ7BV] user [losin] process ID [4960]
[2021.03.29 18:59:21] [0024m.15s.859ms] [0] IT: Session [114] for host [LAPTOP-KS6TQ7BV] user [losin] client type[0] clsvrPluginID[0] with process ID [14584] created
[2021.03.29 18:59:21] [0024m.15s.861ms] [1] SC[114]: Registered sub-client [pcbui] with ID [1] for session ID [114] host [LAPTOP-KS6TQ7BV] user [losin] process ID [14584]
[2021.03.29 18:59:21] [0024m.15s.949ms] [1] CMT: There are [2] clients now: 95, 114
[2021.03.29 18:59:21] [0024m.16s.207ms] [0] IT: Session [115] for host [LAPTOP-KS6TQ7BV] user [losin] client type[0] clsvrPluginID[0] with process ID [12504] created
[2021.03.29 18:59:21] [0024m.16s.208ms] [1] SC[115]: Registered sub-client [icdb2wir] with ID [1] for session ID [115] host [LAPTOP-KS6TQ7BV] user [losin] process ID [12504]
[2021.03.29 18:59:21] [0024m.16s.250ms] [1] CMT: There are [3] clients now: 95, 114, 115
[2021.03.29 18:59:21] [0024m.16s.463ms] [1] SC[115]: UnRegistered sub-client [icdb2wir] with ID [1] for session ID [115] host [LAPTOP-KS6TQ7BV] user [losin] process ID [12504]
[2021.03.29 18:59:22] [0024m.16s.552ms] [1] CMT: Removed client [115]
[2021.03.29 18:59:22] [0024m.16s.552ms] [1] CMT: There are [2] clients now: 95, 114
[2021.03.29 18:59:24] [0024m.18s.683ms] [0] IT: Session [116] for host [LAPTOP-KS6TQ7BV] user [losin] client type[0] clsvrPluginID[0] with process ID [21280] created
[2021.03.29 18:59:24] [0024m.18s.685ms] [1] SC[116]: Registered sub-client [PCBfwd/PCBbck] with ID [1] for session ID [116] host [LAPTOP-KS6TQ7BV] user [losin] process ID [21280]
[2021.03.29 18:59:24] [0024m.18s.766ms] [1] CMT: There are [3] clients now: 95, 114, 116
[2021.03.29 18:59:25] [0024m.19s.843ms] [1] SC[116]: Registered sub-client [LSUDX_PCB] with ID [2] for session ID [116] host [LAPTOP-KS6TQ7BV] user [losin] process ID [21280]
[2021.03.29 18:59:25] [0024m.19s.863ms] [1] SC[116]: Registered sub-client [ObjectHolder_133852328] with ID [3] for session ID [116] host [LAPTOP-KS6TQ7BV] user [losin] process ID [21280]
[2021.03.29 18:59:25] [0024m.19s.867ms] [1] SC[116]: Registered sub-client [BlockCacheDxD:143353720] with ID [4] for session ID [116] host [LAPTOP-KS6TQ7BV] user [losin] process ID [21280]
[2021.03.29 18:59:25] [0024m.19s.871ms] [1] SC[116]: Registered sub-client [GlobalNetAliasUpdater_133852432] with ID [5] for session ID [116] host [LAPTOP-KS6TQ7BV] user [losin] process ID [21280]
[2021.03.29 18:59:25] [0024m.19s.874ms] [1] SC[116]: Registered sub-client [IcdbNetProcessorSubClientDxD:150629256] with ID [6] for session ID [116] host [LAPTOP-KS6TQ7BV] user [losin] process ID [21280]
[2021.03.29 18:59:25] [0024m.20s.092ms] [1] SC[116]: UnRegistered sub-client [GlobalNetAliasUpdater_133852432] with ID [5] for session ID [116] host [LAPTOP-KS6TQ7BV] user [losin] process ID [21280]
[2021.03.29 18:59:25] [0024m.20s.092ms] [1] SC[116]: UnRegistered sub-client [BlockCacheDxD:143353720] with ID [4] for session ID [116] host [LAPTOP-KS6TQ7BV] user [losin] process ID [21280]
[2021.03.29 18:59:25] [0024m.20s.093ms] [1] SC[116]: UnRegistered sub-client [ObjectHolder_133852328] with ID [3] for session ID [116] host [LAPTOP-KS6TQ7BV] user [losin] process ID [21280]
[2021.03.29 18:59:25] [0024m.20s.093ms] [1] SC[116]: UnRegistered sub-client [IcdbNetProcessorSubClientDxD:150629256] with ID [6] for session ID [116] host [LAPTOP-KS6TQ7BV] user [losin] process ID [21280]
[2021.03.29 18:59:25] [0024m.20s.094ms] [1] SC[116]: UnRegistered sub-client [PCBfwd/PCBbck] with ID [1] for session ID [116] host [LAPTOP-KS6TQ7BV] user [losin] process ID [21280]
[2021.03.29 18:59:25] [0024m.20s.100ms] [1] SC[116]: UnRegistered sub-client [LSUDX_PCB] with ID [2] for session ID [116] host [LAPTOP-KS6TQ7BV] user [losin] process ID [21280]
[2021.03.29 18:59:25] [0024m.20s.182ms] [1] CMT: Removed client [116]
[2021.03.29 18:59:25] [0024m.20s.182ms] [1] CMT: There are [2] clients now: 95, 114
[2021.03.29 18:59:25] [0024m.20s.205ms] [1] SC[95]: Registered sub-client [VirtualPartActions::backSyncronize] with ID [49] for session ID [95] host [LAPTOP-KS6TQ7BV] user [losin] process ID [4960]
[2021.03.29 18:59:25] [0024m.20s.206ms] [1] SC[95]: UnRegistered sub-client [VirtualPartActions::backSyncronize] with ID [49] for session ID [95] host [LAPTOP-KS6TQ7BV] user [losin] process ID [4960]
[2021.03.29 18:59:26] [0024m.20s.627ms] [1] SC[114]: UnRegistered sub-client [pcbui] with ID [1] for session ID [114] host [LAPTOP-KS6TQ7BV] user [losin] process ID [14584]
[2021.03.29 18:59:26] [0024m.20s.686ms] [1] CMT: Removed client [114]
[2021.03.29 18:59:26] [0024m.20s.686ms] [1] CMT: There are [1] clients now: 95
[2021.03.29 18:59:26] [0024m.20s.991ms] [1] SC[95]: Registered sub-client [DesignSearcher2] with ID [50] for session ID [95] host [LAPTOP-KS6TQ7BV] user [losin] process ID [4960]
[2021.03.29 19:00:21] [0025m.15s.841ms] [0] IT: Session [117] for host [LAPTOP-KS6TQ7BV] user [losin] client type[0] clsvrPluginID[0] with process ID [1808] created
[2021.03.29 19:00:21] [0025m.15s.842ms] [1] SC[117]: Registered sub-client [ViewDrawLink] with ID [1] for session ID [117] host [LAPTOP-KS6TQ7BV] user [losin] process ID [1808]
[2021.03.29 19:00:21] [0025m.15s.866ms] [1] CMT: There are [2] clients now: 95, 117
[2021.03.29 19:00:21] [0025m.15s.925ms] [1] SC[117]: UnRegistered sub-client [ViewDrawLink] with ID [1] for session ID [117] host [LAPTOP-KS6TQ7BV] user [losin] process ID [1808]
[2021.03.29 19:00:21] [0025m.15s.967ms] [1] CMT: Removed client [117]
[2021.03.29 19:00:21] [0025m.15s.967ms] [1] CMT: There are [1] clients now: 95
[2021.03.29 19:00:27] [0025m.21s.732ms] [0] IT: Session [118] for host [LAPTOP-KS6TQ7BV] user [losin] client type[0] clsvrPluginID[0] with process ID [1808] created
[2021.03.29 19:00:27] [0025m.21s.733ms] [1] SC[118]: Registered sub-client [ViewDrawLink] with ID [1] for session ID [118] host [LAPTOP-KS6TQ7BV] user [losin] process ID [1808]
[2021.03.29 19:00:27] [0025m.21s.809ms] [1] CMT: There are [2] clients now: 95, 118
[2021.03.29 19:00:27] [0025m.22s.114ms] [0] IT: Session [119] for host [LAPTOP-KS6TQ7BV] user [losin] client type[0] clsvrPluginID[0] with process ID [20024] created
[2021.03.29 19:00:27] [0025m.22s.116ms] [1] SC[119]: Registered sub-client [icdb2wir] with ID [1] for session ID [119] host [LAPTOP-KS6TQ7BV] user [losin] process ID [20024]
[2021.03.29 19:00:27] [0025m.22s.212ms] [1] CMT: There are [3] clients now: 95, 118, 119
[2021.03.29 19:00:27] [0025m.22s.314ms] [1] SC[119]: UnRegistered sub-client [icdb2wir] with ID [1] for session ID [119] host [LAPTOP-KS6TQ7BV] user [losin] process ID [20024]
[2021.03.29 19:00:27] [0025m.22s.413ms] [1] CMT: Removed client [119]
[2021.03.29 19:00:27] [0025m.22s.413ms] [1] CMT: There are [2] clients now: 95, 118
[2021.03.29 19:00:29] [0025m.24s.293ms] [0] IT: Session [120] for host [LAPTOP-KS6TQ7BV] user [losin] client type[0] clsvrPluginID[0] with process ID [1416] created
[2021.03.29 19:00:29] [0025m.24s.294ms] [1] SC[120]: Registered sub-client [PCBfwd/PCBbck] with ID [1] for session ID [120] host [LAPTOP-KS6TQ7BV] user [losin] process ID [1416]
[2021.03.29 19:00:29] [0025m.24s.326ms] [1] CMT: There are [3] clients now: 95, 118, 120
[2021.03.29 19:00:30] [0025m.25s.417ms] [1] SC[120]: Registered sub-client [LSUDX_PCB] with ID [2] for session ID [120] host [LAPTOP-KS6TQ7BV] user [losin] process ID [1416]
[2021.03.29 19:00:30] [0025m.25s.436ms] [1] SC[120]: Registered sub-client [ObjectHolder_134861304] with ID [3] for session ID [120] host [LAPTOP-KS6TQ7BV] user [losin] process ID [1416]
[2021.03.29 19:00:30] [0025m.25s.439ms] [1] SC[120]: Registered sub-client [BlockCacheDxD:143692776] with ID [4] for session ID [120] host [LAPTOP-KS6TQ7BV] user [losin] process ID [1416]
[2021.03.29 19:00:30] [0025m.25s.442ms] [1] SC[120]: Registered sub-client [GlobalNetAliasUpdater_134862344] with ID [5] for session ID [120] host [LAPTOP-KS6TQ7BV] user [losin] process ID [1416]
[2021.03.29 19:00:30] [0025m.25s.445ms] [1] SC[120]: Registered sub-client [IcdbNetProcessorSubClientDxD:150942064] with ID [6] for session ID [120] host [LAPTOP-KS6TQ7BV] user [losin] process ID [1416]
[2021.03.29 19:00:31] [0025m.25s.639ms] [1] SC[120]: UnRegistered sub-client [GlobalNetAliasUpdater_134862344] with ID [5] for session ID [120] host [LAPTOP-KS6TQ7BV] user [losin] process ID [1416]
[2021.03.29 19:00:31] [0025m.25s.639ms] [1] SC[120]: UnRegistered sub-client [BlockCacheDxD:143692776] with ID [4] for session ID [120] host [LAPTOP-KS6TQ7BV] user [losin] process ID [1416]
[2021.03.29 19:00:31] [0025m.25s.640ms] [1] SC[120]: UnRegistered sub-client [ObjectHolder_134861304] with ID [3] for session ID [120] host [LAPTOP-KS6TQ7BV] user [losin] process ID [1416]
[2021.03.29 19:00:31] [0025m.25s.640ms] [1] SC[120]: UnRegistered sub-client [IcdbNetProcessorSubClientDxD:150942064] with ID [6] for session ID [120] host [LAPTOP-KS6TQ7BV] user [losin] process ID [1416]
[2021.03.29 19:00:31] [0025m.25s.642ms] [1] SC[120]: UnRegistered sub-client [PCBfwd/PCBbck] with ID [1] for session ID [120] host [LAPTOP-KS6TQ7BV] user [losin] process ID [1416]
[2021.03.29 19:00:31] [0025m.25s.648ms] [1] SC[120]: UnRegistered sub-client [LSUDX_PCB] with ID [2] for session ID [120] host [LAPTOP-KS6TQ7BV] user [losin] process ID [1416]
[2021.03.29 19:00:31] [0025m.25s.735ms] [1] CMT: Removed client [120]
[2021.03.29 19:00:31] [0025m.25s.735ms] [1] CMT: There are [2] clients now: 95, 118
[2021.03.29 19:00:31] [0025m.26s.438ms] [1] SC[118]: UnRegistered sub-client [ViewDrawLink] with ID [1] for session ID [118] host [LAPTOP-KS6TQ7BV] user [losin] process ID [1808]
[2021.03.29 19:00:31] [0025m.26s.440ms] [1] CMT: Removed client [118]
[2021.03.29 19:00:31] [0025m.26s.440ms] [1] CMT: There are [1] clients now: 95
[2021.03.29 19:00:32] [0025m.26s.789ms] [0] IT: Session [121] for host [LAPTOP-KS6TQ7BV] user [losin] client type[0] clsvrPluginID[0] with process ID [1808] created
[2021.03.29 19:00:32] [0025m.26s.791ms] [1] SC[121]: Registered sub-client [ViewDrawLink] with ID [1] for session ID [121] host [LAPTOP-KS6TQ7BV] user [losin] process ID [1808]
[2021.03.29 19:00:32] [0025m.26s.843ms] [1] CMT: There are [2] clients now: 95, 121
[2021.03.29 19:00:32] [0025m.26s.868ms] [1] SC[121]: UnRegistered sub-client [ViewDrawLink] with ID [1] for session ID [121] host [LAPTOP-KS6TQ7BV] user [losin] process ID [1808]
[2021.03.29 19:00:32] [0025m.26s.944ms] [1] CMT: Removed client [121]
[2021.03.29 19:00:32] [0025m.26s.944ms] [1] CMT: There are [1] clients now: 95
[2021.03.29 19:00:34] [0025m.28s.955ms] [0] IT: Session [122] for host [LAPTOP-KS6TQ7BV] user [losin] client type[0] clsvrPluginID[0] with process ID [1808] created
[2021.03.29 19:00:34] [0025m.28s.956ms] [1] SC[122]: Registered sub-client [ViewDrawLink] with ID [1] for session ID [122] host [LAPTOP-KS6TQ7BV] user [losin] process ID [1808]
[2021.03.29 19:00:34] [0025m.28s.958ms] [1] CMT: There are [2] clients now: 95, 122
[2021.03.29 19:00:34] [0025m.29s.056ms] [1] SC[122]: UnRegistered sub-client [ViewDrawLink] with ID [1] for session ID [122] host [LAPTOP-KS6TQ7BV] user [losin] process ID [1808]
[2021.03.29 19:00:34] [0025m.29s.060ms] [1] CMT: Removed client [122]
[2021.03.29 19:00:34] [0025m.29s.060ms] [1] CMT: There are [1] clients now: 95
[2021.03.29 19:51:19] [0076m.14s.001ms] [0] IT: Session [123] for host [LAPTOP-KS6TQ7BV] user [losin] client type[0] clsvrPluginID[0] with process ID [14172] created
[2021.03.29 19:51:19] [0076m.14s.002ms] [1] SC[123]: Registered sub-client [ViewDrawLink] with ID [1] for session ID [123] host [LAPTOP-KS6TQ7BV] user [losin] process ID [14172]
[2021.03.29 19:51:19] [0076m.14s.083ms] [1] CMT: There are [2] clients now: 95, 123
[2021.03.29 19:51:19] [0076m.14s.148ms] [1] SC[123]: UnRegistered sub-client [ViewDrawLink] with ID [1] for session ID [123] host [LAPTOP-KS6TQ7BV] user [losin] process ID [14172]
[2021.03.29 19:51:19] [0076m.14s.185ms] [1] CMT: Removed client [123]
[2021.03.29 19:51:19] [0076m.14s.185ms] [1] CMT: There are [1] clients now: 95
[2021.03.29 19:51:23] [0076m.18s.297ms] [0] IT: Session [124] for host [LAPTOP-KS6TQ7BV] user [losin] client type[0] clsvrPluginID[0] with process ID [14172] created
[2021.03.29 19:51:23] [0076m.18s.299ms] [1] SC[124]: Registered sub-client [ViewDrawLink] with ID [1] for session ID [124] host [LAPTOP-KS6TQ7BV] user [losin] process ID [14172]
[2021.03.29 19:51:23] [0076m.18s.307ms] [1] CMT: There are [2] clients now: 95, 124
[2021.03.29 19:51:24] [0076m.19s.060ms] [0] IT: Session [125] for host [LAPTOP-KS6TQ7BV] user [losin] client type[0] clsvrPluginID[0] with process ID [14080] created
[2021.03.29 19:51:24] [0076m.19s.063ms] [1] SC[125]: Registered sub-client [icdb2wir] with ID [1] for session ID [125] host [LAPTOP-KS6TQ7BV] user [losin] process ID [14080]
[2021.03.29 19:51:24] [0076m.19s.112ms] [1] CMT: There are [3] clients now: 95, 124, 125
[2021.03.29 19:51:25] [0076m.19s.556ms] [1] SC[125]: UnRegistered sub-client [icdb2wir] with ID [1] for session ID [125] host [LAPTOP-KS6TQ7BV] user [losin] process ID [14080]
[2021.03.29 19:51:25] [0076m.19s.616ms] [1] CMT: Removed client [125]
[2021.03.29 19:51:25] [0076m.19s.617ms] [1] CMT: There are [2] clients now: 95, 124
[2021.03.29 19:51:28] [0076m.22s.951ms] [0] IT: Session [126] for host [LAPTOP-KS6TQ7BV] user [losin] client type[0] clsvrPluginID[0] with process ID [19832] created
[2021.03.29 19:51:28] [0076m.22s.953ms] [1] SC[126]: Registered sub-client [PCBfwd/PCBbck] with ID [1] for session ID [126] host [LAPTOP-KS6TQ7BV] user [losin] process ID [19832]
[2021.03.29 19:51:28] [0076m.23s.038ms] [1] CMT: There are [3] clients now: 95, 124, 126
[2021.03.29 19:51:29] [0076m.24s.184ms] [1] SC[126]: Registered sub-client [LSUDX_PCB] with ID [2] for session ID [126] host [LAPTOP-KS6TQ7BV] user [losin] process ID [19832]
[2021.03.29 19:51:29] [0076m.24s.220ms] [1] SC[126]: Registered sub-client [ObjectHolder_133537144] with ID [3] for session ID [126] host [LAPTOP-KS6TQ7BV] user [losin] process ID [19832]
[2021.03.29 19:51:29] [0076m.24s.226ms] [1] SC[126]: Registered sub-client [BlockCacheDxD:142708200] with ID [4] for session ID [126] host [LAPTOP-KS6TQ7BV] user [losin] process ID [19832]
[2021.03.29 19:51:29] [0076m.24s.232ms] [1] SC[126]: Registered sub-client [GlobalNetAliasUpdater_133537248] with ID [5] for session ID [126] host [LAPTOP-KS6TQ7BV] user [losin] process ID [19832]
[2021.03.29 19:51:29] [0076m.24s.239ms] [1] SC[126]: Registered sub-client [IcdbNetProcessorSubClientDxD:150903776] with ID [6] for session ID [126] host [LAPTOP-KS6TQ7BV] user [losin] process ID [19832]
[2021.03.29 19:51:30] [0076m.24s.670ms] [1] SC[126]: UnRegistered sub-client [GlobalNetAliasUpdater_133537248] with ID [5] for session ID [126] host [LAPTOP-KS6TQ7BV] user [losin] process ID [19832]
[2021.03.29 19:51:30] [0076m.24s.671ms] [1] SC[126]: UnRegistered sub-client [BlockCacheDxD:142708200] with ID [4] for session ID [126] host [LAPTOP-KS6TQ7BV] user [losin] process ID [19832]
[2021.03.29 19:51:30] [0076m.24s.671ms] [1] SC[126]: UnRegistered sub-client [ObjectHolder_133537144] with ID [3] for session ID [126] host [LAPTOP-KS6TQ7BV] user [losin] process ID [19832]
[2021.03.29 19:51:30] [0076m.24s.672ms] [1] SC[126]: UnRegistered sub-client [IcdbNetProcessorSubClientDxD:150903776] with ID [6] for session ID [126] host [LAPTOP-KS6TQ7BV] user [losin] process ID [19832]
[2021.03.29 19:51:30] [0076m.24s.675ms] [1] SC[126]: UnRegistered sub-client [PCBfwd/PCBbck] with ID [1] for session ID [126] host [LAPTOP-KS6TQ7BV] user [losin] process ID [19832]
[2021.03.29 19:51:30] [0076m.24s.686ms] [1] SC[126]: UnRegistered sub-client [LSUDX_PCB] with ID [2] for session ID [126] host [LAPTOP-KS6TQ7BV] user [losin] process ID [19832]
[2021.03.29 19:51:30] [0076m.24s.753ms] [1] CMT: Removed client [126]
[2021.03.29 19:51:30] [0076m.24s.753ms] [1] CMT: There are [2] clients now: 95, 124
[2021.03.29 19:51:31] [0076m.25s.867ms] [1] SC[124]: UnRegistered sub-client [ViewDrawLink] with ID [1] for session ID [124] host [LAPTOP-KS6TQ7BV] user [losin] process ID [14172]
[2021.03.29 19:51:31] [0076m.25s.960ms] [1] CMT: Removed client [124]
[2021.03.29 19:51:31] [0076m.25s.961ms] [1] CMT: There are [1] clients now: 95
[2021.03.29 19:51:31] [0076m.26s.457ms] [0] IT: Session [127] for host [LAPTOP-KS6TQ7BV] user [losin] client type[0] clsvrPluginID[0] with process ID [14172] created
[2021.03.29 19:51:31] [0076m.26s.458ms] [1] SC[127]: Registered sub-client [ViewDrawLink] with ID [1] for session ID [127] host [LAPTOP-KS6TQ7BV] user [losin] process ID [14172]
[2021.03.29 19:51:31] [0076m.26s.465ms] [1] CMT: There are [2] clients now: 95, 127
[2021.03.29 19:51:32] [0076m.26s.610ms] [1] SC[127]: UnRegistered sub-client [ViewDrawLink] with ID [1] for session ID [127] host [LAPTOP-KS6TQ7BV] user [losin] process ID [14172]
[2021.03.29 19:51:32] [0076m.26s.666ms] [1] CMT: Removed client [127]
[2021.03.29 19:51:32] [0076m.26s.667ms] [1] CMT: There are [1] clients now: 95
[2021.03.29 19:51:35] [0076m.29s.913ms] [0] IT: Session [128] for host [LAPTOP-KS6TQ7BV] user [losin] client type[0] clsvrPluginID[0] with process ID [14172] created
[2021.03.29 19:51:35] [0076m.29s.916ms] [1] SC[128]: Registered sub-client [ViewDrawLink] with ID [1] for session ID [128] host [LAPTOP-KS6TQ7BV] user [losin] process ID [14172]
[2021.03.29 19:51:35] [0076m.29s.990ms] [1] CMT: There are [2] clients now: 95, 128
[2021.03.29 19:51:35] [0076m.30s.092ms] [1] SC[128]: UnRegistered sub-client [ViewDrawLink] with ID [1] for session ID [128] host [LAPTOP-KS6TQ7BV] user [losin] process ID [14172]
[2021.03.29 19:51:35] [0076m.30s.192ms] [1] CMT: Removed client [128]
[2021.03.29 19:51:35] [0076m.30s.192ms] [1] CMT: There are [1] clients now: 95
[2021.03.29 20:00:03] [0084m.57s.728ms] [1] PrjBackupMgr: Successfully created Project Backup [C:\Users\losin\Desktop\p1\ProjectBackup\backups\2021-03-29 20.00.03 - auto.zip] with GUID [5de8-859b-1ae7-062e-30a6-2609-0a62-6060-7059-a636-6172-a19d]
[2021.03.29 20:00:03] [0084m.57s.749ms] [0] PrjBackupMgr: Removing excessive backup:  BackupGUID[2ec0-9ef4-b335-9797-6dd1-160c-dd11-6060-7a9a-a636-6172-a19d] CreationTime[Monday, March 29, 2021 00:22:46] Type[Autosave] Creator[iCDB Server (2021-03-28 19.15.50-17676)] ApplicationName[iCDB Server (2021-03-28 19.15.50-17676)] UserName[losin] MachineName[LAPTOP-KS6TQ7BV] Description[Autosave] FullFlowName[PADS VX.2.7; PADS VX.2.7 - Update 1] FlowId[PADSVX.2.7] GBSInstallId[2119024; 2150279] GBSBuildId[15449124] IcdbVersion[3800] ReferenceLogFilePath[] BackupFilePath[C:\Users\losin\Desktop\p1\ProjectBackup\backups\2021-03-28 20.22.46 - auto.zip] BackupFileSize[278618] Persistent[FALSE]
[2021.03.29 20:00:03] [0084m.57s.766ms] [0] PrjBackupMgr: Project Backup file [C:\Users\losin\Desktop\p1\ProjectBackup\backups\2021-03-28 20.22.46 - auto.zip] with GUID [2ec0-9ef4-b335-9797-6dd1-160c-dd11-6060-7a9a-a636-6172-a19d] removed
[2021.03.29 20:00:03] [0084m.57s.768ms] [0] PrjBackupEngine: Successfully created backup:  BackupGUID[5de8-859b-1ae7-062e-30a6-2609-0a62-6060-7059-a636-6172-a19d] CreationTime[Tuesday, March 30, 2021 00:00:03] Type[Autosave] Creator[iCDB Server (2021-03-29 18.35.05-13804)] ApplicationName[iCDB Server (2021-03-29 18.35.05-13804)] UserName[losin] MachineName[LAPTOP-KS6TQ7BV] Description[Autosave] FullFlowName[PADS VX.2.7; PADS VX.2.7 - Update 1] FlowId[PADSVX.2.7] GBSInstallId[2119024; 2150279] GBSBuildId[15449124] IcdbVersion[3800] ReferenceLogFilePath[] BackupFilePath[C:\Users\losin\Desktop\p1\ProjectBackup\backups\2021-03-29 20.00.03 - auto.zip] BackupFileSize[327180] Persistent[FALSE]
[2021.03.29 20:48:10] [0133m.05s.112ms] [1] SC[95]: Registered sub-client [hdlUtilsDialog] with ID [51] for session ID [95] host [LAPTOP-KS6TQ7BV] user [losin] process ID [4960]
[2021.03.29 20:48:10] [0133m.05s.113ms] [1] SC[95]: UnRegistered sub-client [hdlUtilsDialog] with ID [51] for session ID [95] host [LAPTOP-KS6TQ7BV] user [losin] process ID [4960]
[2021.03.29 21:07:46] [0152m.41s.405ms] [1] SC[95]: UnRegistered sub-client [DesignSearcher2] with ID [50] for session ID [95] host [LAPTOP-KS6TQ7BV] user [losin] process ID [4960]
[2021.03.29 21:08:08] [0153m.02s.675ms] [0] IT: Session [129] for host [LAPTOP-KS6TQ7BV] user [losin] client type[0] clsvrPluginID[0] with process ID [8296] created
[2021.03.29 21:08:08] [0153m.02s.678ms] [1] SC[129]: Registered sub-client [ViewDrawLink] with ID [1] for session ID [129] host [LAPTOP-KS6TQ7BV] user [losin] process ID [8296]
[2021.03.29 21:08:08] [0153m.02s.767ms] [1] CMT: There are [2] clients now: 95, 129
[2021.03.29 21:08:08] [0153m.02s.801ms] [1] SC[129]: UnRegistered sub-client [ViewDrawLink] with ID [1] for session ID [129] host [LAPTOP-KS6TQ7BV] user [losin] process ID [8296]
[2021.03.29 21:08:08] [0153m.02s.868ms] [1] CMT: Removed client [129]
[2021.03.29 21:08:08] [0153m.02s.868ms] [1] CMT: There are [1] clients now: 95
[2021.03.29 21:08:29] [0153m.24s.162ms] [0] IT: Session [130] for host [LAPTOP-KS6TQ7BV] user [losin] client type[0] clsvrPluginID[0] with process ID [8296] created
[2021.03.29 21:08:29] [0153m.24s.164ms] [1] SC[130]: Registered sub-client [ViewDrawLink] with ID [1] for session ID [130] host [LAPTOP-KS6TQ7BV] user [losin] process ID [8296]
[2021.03.29 21:08:29] [0153m.24s.204ms] [1] CMT: There are [2] clients now: 95, 130
[2021.03.29 21:08:30] [0153m.25s.391ms] [0] IT: Session [131] for host [LAPTOP-KS6TQ7BV] user [losin] client type[0] clsvrPluginID[0] with process ID [20296] created
[2021.03.29 21:08:30] [0153m.25s.393ms] [1] SC[131]: Registered sub-client [icdb2wir] with ID [1] for session ID [131] host [LAPTOP-KS6TQ7BV] user [losin] process ID [20296]
[2021.03.29 21:08:30] [0153m.25s.413ms] [1] CMT: There are [3] clients now: 95, 130, 131
[2021.03.29 21:08:31] [0153m.26s.023ms] [1] SC[131]: UnRegistered sub-client [icdb2wir] with ID [1] for session ID [131] host [LAPTOP-KS6TQ7BV] user [losin] process ID [20296]
[2021.03.29 21:08:31] [0153m.26s.118ms] [1] CMT: Removed client [131]
[2021.03.29 21:08:31] [0153m.26s.118ms] [1] CMT: There are [2] clients now: 95, 130
[2021.03.29 21:08:37] [0153m.32s.204ms] [0] IT: Session [132] for host [LAPTOP-KS6TQ7BV] user [losin] client type[0] clsvrPluginID[0] with process ID [10696] created
[2021.03.29 21:08:37] [0153m.32s.206ms] [1] SC[132]: Registered sub-client [PCBfwd/PCBbck] with ID [1] for session ID [132] host [LAPTOP-KS6TQ7BV] user [losin] process ID [10696]
[2021.03.29 21:08:37] [0153m.32s.261ms] [1] CMT: There are [3] clients now: 95, 130, 132
[2021.03.29 21:08:38] [0153m.33s.492ms] [1] SC[132]: Registered sub-client [LSUDX_PCB] with ID [2] for session ID [132] host [LAPTOP-KS6TQ7BV] user [losin] process ID [10696]
[2021.03.29 21:08:39] [0153m.33s.526ms] [1] SC[132]: Registered sub-client [ObjectHolder_132008344] with ID [3] for session ID [132] host [LAPTOP-KS6TQ7BV] user [losin] process ID [10696]
[2021.03.29 21:08:39] [0153m.33s.531ms] [1] SC[132]: Registered sub-client [BlockCacheDxD:139871976] with ID [4] for session ID [132] host [LAPTOP-KS6TQ7BV] user [losin] process ID [10696]
[2021.03.29 21:08:39] [0153m.33s.536ms] [1] SC[132]: Registered sub-client [GlobalNetAliasUpdater_132008448] with ID [5] for session ID [132] host [LAPTOP-KS6TQ7BV] user [losin] process ID [10696]
[2021.03.29 21:08:39] [0153m.33s.541ms] [1] SC[132]: Registered sub-client [IcdbNetProcessorSubClientDxD:148088160] with ID [6] for session ID [132] host [LAPTOP-KS6TQ7BV] user [losin] process ID [10696]
[2021.03.29 21:08:39] [0153m.33s.938ms] [1] SC[132]: UnRegistered sub-client [GlobalNetAliasUpdater_132008448] with ID [5] for session ID [132] host [LAPTOP-KS6TQ7BV] user [losin] process ID [10696]
[2021.03.29 21:08:39] [0153m.33s.939ms] [1] SC[132]: UnRegistered sub-client [BlockCacheDxD:139871976] with ID [4] for session ID [132] host [LAPTOP-KS6TQ7BV] user [losin] process ID [10696]
[2021.03.29 21:08:39] [0153m.33s.939ms] [1] SC[132]: UnRegistered sub-client [ObjectHolder_132008344] with ID [3] for session ID [132] host [LAPTOP-KS6TQ7BV] user [losin] process ID [10696]
[2021.03.29 21:08:39] [0153m.33s.940ms] [1] SC[132]: UnRegistered sub-client [IcdbNetProcessorSubClientDxD:148088160] with ID [6] for session ID [132] host [LAPTOP-KS6TQ7BV] user [losin] process ID [10696]
[2021.03.29 21:08:39] [0153m.33s.945ms] [1] SC[132]: UnRegistered sub-client [PCBfwd/PCBbck] with ID [1] for session ID [132] host [LAPTOP-KS6TQ7BV] user [losin] process ID [10696]
[2021.03.29 21:08:39] [0153m.33s.958ms] [1] SC[132]: UnRegistered sub-client [LSUDX_PCB] with ID [2] for session ID [132] host [LAPTOP-KS6TQ7BV] user [losin] process ID [10696]
[2021.03.29 21:08:39] [0153m.33s.971ms] [1] CMT: Removed client [132]
[2021.03.29 21:08:39] [0153m.33s.971ms] [1] CMT: There are [2] clients now: 95, 130
[2021.03.29 21:08:41] [0153m.35s.861ms] [1] SC[95]: Registered sub-client [VirtualPartActions::backSyncronize] with ID [52] for session ID [95] host [LAPTOP-KS6TQ7BV] user [losin] process ID [4960]
[2021.03.29 21:08:41] [0153m.35s.864ms] [1] SC[95]: UnRegistered sub-client [VirtualPartActions::backSyncronize] with ID [52] for session ID [95] host [LAPTOP-KS6TQ7BV] user [losin] process ID [4960]
[2021.03.29 21:08:41] [0153m.36s.202ms] [1] SC[130]: UnRegistered sub-client [ViewDrawLink] with ID [1] for session ID [130] host [LAPTOP-KS6TQ7BV] user [losin] process ID [8296]
[2021.03.29 21:08:41] [0153m.36s.285ms] [1] CMT: Removed client [130]
[2021.03.29 21:08:41] [0153m.36s.285ms] [1] CMT: There are [1] clients now: 95
[2021.03.29 21:08:42] [0153m.36s.796ms] [0] IT: Session [133] for host [LAPTOP-KS6TQ7BV] user [losin] client type[0] clsvrPluginID[0] with process ID [8296] created
[2021.03.29 21:08:42] [0153m.36s.798ms] [1] SC[133]: Registered sub-client [ViewDrawLink] with ID [1] for session ID [133] host [LAPTOP-KS6TQ7BV] user [losin] process ID [8296]
[2021.03.29 21:08:42] [0153m.36s.887ms] [1] CMT: There are [2] clients now: 95, 133
[2021.03.29 21:08:42] [0153m.36s.926ms] [1] SC[133]: UnRegistered sub-client [ViewDrawLink] with ID [1] for session ID [133] host [LAPTOP-KS6TQ7BV] user [losin] process ID [8296]
[2021.03.29 21:08:42] [0153m.36s.988ms] [1] CMT: Removed client [133]
[2021.03.29 21:08:42] [0153m.36s.988ms] [1] CMT: There are [1] clients now: 95
[2021.03.29 21:08:44] [0153m.39s.163ms] [0] IT: Session [134] for host [LAPTOP-KS6TQ7BV] user [losin] client type[0] clsvrPluginID[0] with process ID [8296] created
[2021.03.29 21:08:44] [0153m.39s.165ms] [1] SC[134]: Registered sub-client [ViewDrawLink] with ID [1] for session ID [134] host [LAPTOP-KS6TQ7BV] user [losin] process ID [8296]
[2021.03.29 21:08:44] [0153m.39s.211ms] [1] CMT: There are [2] clients now: 95, 134
[2021.03.29 21:08:44] [0153m.39s.374ms] [1] SC[134]: UnRegistered sub-client [ViewDrawLink] with ID [1] for session ID [134] host [LAPTOP-KS6TQ7BV] user [losin] process ID [8296]
[2021.03.29 21:08:44] [0153m.39s.413ms] [1] CMT: Removed client [134]
[2021.03.29 21:08:44] [0153m.39s.413ms] [1] CMT: There are [1] clients now: 95
[2021.03.29 21:09:54] [0154m.49s.154ms] [0] IT: Session [135] for host [LAPTOP-KS6TQ7BV] user [losin] client type[0] clsvrPluginID[0] with process ID [2968] created
[2021.03.29 21:09:54] [0154m.49s.156ms] [1] SC[135]: Registered sub-client [pcbui] with ID [1] for session ID [135] host [LAPTOP-KS6TQ7BV] user [losin] process ID [2968]
[2021.03.29 21:09:54] [0154m.49s.241ms] [1] CMT: There are [2] clients now: 95, 135
[2021.03.29 21:09:55] [0154m.49s.671ms] [0] IT: Session [136] for host [LAPTOP-KS6TQ7BV] user [losin] client type[0] clsvrPluginID[0] with process ID [2452] created
[2021.03.29 21:09:55] [0154m.49s.674ms] [1] SC[136]: Registered sub-client [icdb2wir] with ID [1] for session ID [136] host [LAPTOP-KS6TQ7BV] user [losin] process ID [2452]
[2021.03.29 21:09:55] [0154m.49s.743ms] [1] CMT: There are [3] clients now: 95, 135, 136
[2021.03.29 21:09:55] [0154m.50s.219ms] [1] SC[136]: UnRegistered sub-client [icdb2wir] with ID [1] for session ID [136] host [LAPTOP-KS6TQ7BV] user [losin] process ID [2452]
[2021.03.29 21:09:55] [0154m.50s.245ms] [1] CMT: Removed client [136]
[2021.03.29 21:09:55] [0154m.50s.245ms] [1] CMT: There are [2] clients now: 95, 135
[2021.03.29 21:09:59] [0154m.53s.862ms] [0] IT: Session [137] for host [LAPTOP-KS6TQ7BV] user [losin] client type[0] clsvrPluginID[0] with process ID [16740] created
[2021.03.29 21:09:59] [0154m.53s.865ms] [1] SC[137]: Registered sub-client [PCBfwd/PCBbck] with ID [1] for session ID [137] host [LAPTOP-KS6TQ7BV] user [losin] process ID [16740]
[2021.03.29 21:09:59] [0154m.53s.869ms] [1] CMT: There are [3] clients now: 95, 135, 137
[2021.03.29 21:10:00] [0154m.55s.100ms] [1] SC[137]: Registered sub-client [LSUDX_PCB] with ID [2] for session ID [137] host [LAPTOP-KS6TQ7BV] user [losin] process ID [16740]
[2021.03.29 21:10:00] [0154m.55s.148ms] [1] SC[137]: Registered sub-client [ObjectHolder_133452800] with ID [3] for session ID [137] host [LAPTOP-KS6TQ7BV] user [losin] process ID [16740]
[2021.03.29 21:10:00] [0154m.55s.156ms] [1] SC[137]: Registered sub-client [BlockCacheDxD:134896984] with ID [4] for session ID [137] host [LAPTOP-KS6TQ7BV] user [losin] process ID [16740]
[2021.03.29 21:10:00] [0154m.55s.164ms] [1] SC[137]: Registered sub-client [GlobalNetAliasUpdater_133450304] with ID [5] for session ID [137] host [LAPTOP-KS6TQ7BV] user [losin] process ID [16740]
[2021.03.29 21:10:00] [0154m.55s.171ms] [1] SC[137]: Registered sub-client [IcdbNetProcessorSubClientDxD:151394472] with ID [6] for session ID [137] host [LAPTOP-KS6TQ7BV] user [losin] process ID [16740]
[2021.03.29 21:10:01] [0154m.55s.548ms] [1] SC[137]: UnRegistered sub-client [GlobalNetAliasUpdater_133450304] with ID [5] for session ID [137] host [LAPTOP-KS6TQ7BV] user [losin] process ID [16740]
[2021.03.29 21:10:01] [0154m.55s.549ms] [1] SC[137]: UnRegistered sub-client [BlockCacheDxD:134896984] with ID [4] for session ID [137] host [LAPTOP-KS6TQ7BV] user [losin] process ID [16740]
[2021.03.29 21:10:01] [0154m.55s.549ms] [1] SC[137]: UnRegistered sub-client [ObjectHolder_133452800] with ID [3] for session ID [137] host [LAPTOP-KS6TQ7BV] user [losin] process ID [16740]
[2021.03.29 21:10:01] [0154m.55s.550ms] [1] SC[137]: UnRegistered sub-client [IcdbNetProcessorSubClientDxD:151394472] with ID [6] for session ID [137] host [LAPTOP-KS6TQ7BV] user [losin] process ID [16740]
[2021.03.29 21:10:01] [0154m.55s.553ms] [1] SC[137]: UnRegistered sub-client [PCBfwd/PCBbck] with ID [1] for session ID [137] host [LAPTOP-KS6TQ7BV] user [losin] process ID [16740]
[2021.03.29 21:10:01] [0154m.55s.564ms] [1] SC[137]: UnRegistered sub-client [LSUDX_PCB] with ID [2] for session ID [137] host [LAPTOP-KS6TQ7BV] user [losin] process ID [16740]
[2021.03.29 21:10:01] [0154m.55s.581ms] [1] CMT: Removed client [137]
[2021.03.29 21:10:01] [0154m.55s.582ms] [1] CMT: There are [2] clients now: 95, 135
[2021.03.29 21:10:02] [0154m.57s.018ms] [1] SC[135]: UnRegistered sub-client [pcbui] with ID [1] for session ID [135] host [LAPTOP-KS6TQ7BV] user [losin] process ID [2968]
[2021.03.29 21:10:02] [0154m.57s.090ms] [1] CMT: Removed client [135]
[2021.03.29 21:10:02] [0154m.57s.090ms] [1] CMT: There are [1] clients now: 95
[2021.03.29 21:10:02] [0154m.57s.357ms] [1] SC[95]: Registered sub-client [DesignSearcher2] with ID [53] for session ID [95] host [LAPTOP-KS6TQ7BV] user [losin] process ID [4960]
[2021.03.29 21:10:14] [0155m.08s.716ms] [1] SC[95]: UnRegistered sub-client [DesignSearcher2] with ID [53] for session ID [95] host [LAPTOP-KS6TQ7BV] user [losin] process ID [4960]
[2021.03.29 21:10:16] [0155m.10s.797ms] [0] IT: Session [138] for host [LAPTOP-KS6TQ7BV] user [losin] client type[0] clsvrPluginID[0] with process ID [15944] created
[2021.03.29 21:10:16] [0155m.10s.799ms] [1] SC[138]: Registered sub-client [pcbui] with ID [1] for session ID [138] host [LAPTOP-KS6TQ7BV] user [losin] process ID [15944]
[2021.03.29 21:10:16] [0155m.10s.874ms] [1] CMT: There are [2] clients now: 95, 138
[2021.03.29 21:10:16] [0155m.11s.265ms] [0] IT: Session [139] for host [LAPTOP-KS6TQ7BV] user [losin] client type[0] clsvrPluginID[0] with process ID [1312] created
[2021.03.29 21:10:16] [0155m.11s.268ms] [1] SC[139]: Registered sub-client [icdb2wir] with ID [1] for session ID [139] host [LAPTOP-KS6TQ7BV] user [losin] process ID [1312]
[2021.03.29 21:10:16] [0155m.11s.277ms] [1] CMT: There are [3] clients now: 95, 138, 139
[2021.03.29 21:10:17] [0155m.11s.599ms] [1] SC[139]: UnRegistered sub-client [icdb2wir] with ID [1] for session ID [139] host [LAPTOP-KS6TQ7BV] user [losin] process ID [1312]
[2021.03.29 21:10:17] [0155m.11s.681ms] [1] CMT: Removed client [139]
[2021.03.29 21:10:17] [0155m.11s.681ms] [1] CMT: There are [2] clients now: 95, 138
[2021.03.29 21:10:19] [0155m.14s.468ms] [0] IT: Session [140] for host [LAPTOP-KS6TQ7BV] user [losin] client type[0] clsvrPluginID[0] with process ID [12368] created
[2021.03.29 21:10:19] [0155m.14s.471ms] [1] SC[140]: Registered sub-client [PCBfwd/PCBbck] with ID [1] for session ID [140] host [LAPTOP-KS6TQ7BV] user [losin] process ID [12368]
[2021.03.29 21:10:20] [0155m.14s.499ms] [1] CMT: There are [3] clients now: 95, 138, 140
[2021.03.29 21:10:21] [0155m.15s.703ms] [1] SC[140]: Registered sub-client [LSUDX_PCB] with ID [2] for session ID [140] host [LAPTOP-KS6TQ7BV] user [losin] process ID [12368]
[2021.03.29 21:10:21] [0155m.15s.733ms] [1] SC[140]: Registered sub-client [ObjectHolder_128885208] with ID [3] for session ID [140] host [LAPTOP-KS6TQ7BV] user [losin] process ID [12368]
[2021.03.29 21:10:21] [0155m.15s.739ms] [1] SC[140]: Registered sub-client [BlockCacheDxD:132563800] with ID [4] for session ID [140] host [LAPTOP-KS6TQ7BV] user [losin] process ID [12368]
[2021.03.29 21:10:21] [0155m.15s.746ms] [1] SC[140]: Registered sub-client [GlobalNetAliasUpdater_128887080] with ID [5] for session ID [140] host [LAPTOP-KS6TQ7BV] user [losin] process ID [12368]
[2021.03.29 21:10:21] [0155m.15s.752ms] [1] SC[140]: Registered sub-client [IcdbNetProcessorSubClientDxD:149015336] with ID [6] for session ID [140] host [LAPTOP-KS6TQ7BV] user [losin] process ID [12368]
[2021.03.29 21:10:21] [0155m.16s.104ms] [1] SC[140]: UnRegistered sub-client [GlobalNetAliasUpdater_128887080] with ID [5] for session ID [140] host [LAPTOP-KS6TQ7BV] user [losin] process ID [12368]
[2021.03.29 21:10:21] [0155m.16s.105ms] [1] SC[140]: UnRegistered sub-client [BlockCacheDxD:132563800] with ID [4] for session ID [140] host [LAPTOP-KS6TQ7BV] user [losin] process ID [12368]
[2021.03.29 21:10:21] [0155m.16s.105ms] [1] SC[140]: UnRegistered sub-client [ObjectHolder_128885208] with ID [3] for session ID [140] host [LAPTOP-KS6TQ7BV] user [losin] process ID [12368]
[2021.03.29 21:10:21] [0155m.16s.106ms] [1] SC[140]: UnRegistered sub-client [IcdbNetProcessorSubClientDxD:149015336] with ID [6] for session ID [140] host [LAPTOP-KS6TQ7BV] user [losin] process ID [12368]
[2021.03.29 21:10:21] [0155m.16s.110ms] [1] SC[140]: UnRegistered sub-client [PCBfwd/PCBbck] with ID [1] for session ID [140] host [LAPTOP-KS6TQ7BV] user [losin] process ID [12368]
[2021.03.29 21:10:21] [0155m.16s.119ms] [1] SC[140]: UnRegistered sub-client [LSUDX_PCB] with ID [2] for session ID [140] host [LAPTOP-KS6TQ7BV] user [losin] process ID [12368]
[2021.03.29 21:10:21] [0155m.16s.210ms] [1] CMT: Removed client [140]
[2021.03.29 21:10:21] [0155m.16s.210ms] [1] CMT: There are [2] clients now: 95, 138
[2021.03.29 21:10:22] [0155m.17s.132ms] [1] SC[138]: UnRegistered sub-client [pcbui] with ID [1] for session ID [138] host [LAPTOP-KS6TQ7BV] user [losin] process ID [15944]
[2021.03.29 21:10:22] [0155m.17s.217ms] [1] CMT: Removed client [138]
[2021.03.29 21:10:22] [0155m.17s.217ms] [1] CMT: There are [1] clients now: 95
[2021.03.29 21:10:23] [0155m.17s.495ms] [1] SC[95]: Registered sub-client [DesignSearcher2] with ID [54] for session ID [95] host [LAPTOP-KS6TQ7BV] user [losin] process ID [4960]
